A0A023T778
A0A075B5P3
A0A075B5P4
A0A075B5P5
A0A087WNL4
A0A087WNM3
A0A087WNQ1
A0A087WNR6
A0A087WNS2
A0A087WNT9
A0A087WNV6
A0A087WNW3
A0A087WNW8
A0A087WNY2
A0A087WP01
A0A087WP07
A0A087WP14
A0A087WP24
A0A087WP27
A0A087WP33
A0A087WP42
A0A087WP43
A0A087WP45
A0A087WP48
A0A087WP49
A0A087WP68
A0A087WP73
A0A087WP85
A0A087WPA1
A0A087WPF8
A0A087WPJ3
A0A087WPL0
A0A087WPL5
A0A087WPL6
A0A087WPL8
A0A087WPM2
A0A087WPS0
A0A087WPT5
A0A087WPU8
A0A087WPW5
A0A087WPX0
A0A087WPY5
A0A087WPY8
A0A087WQ16
A0A087WQ18
A0A087WQ25
A0A087WQ26
A0A087WQ31
A0A087WQ32
A0A087WQ41
A0A087WQ53
A0A087WQ75
A0A087WQ95
A0A087WQB5
A0A087WQB7
A0A087WQD0
A0A087WQD7
A0A087WQE1
A0A087WQF1
A0A087WQF8
A0A087WQG4
A0A087WQH4
A0A087WQI3
A0A087WQL9
A0A087WQN5
A0A087WQN7
A0A087WQN8
A0A087WQN9
A0A087WQQ5
A0A087WQV5
A0A087WQW4
A0A087WQZ2
A0A087WR05
A0A087WR33
A0A087WR59
A0A087WR69
A0A087WR91
A0A087WRB2
A0A087WRE8
A0A087WRG0
A0A087WRG3
A0A087WRI1
A0A087WRJ2
A0A087WRJ5
A0A087WRK0
A0A087WRK6
A0A087WRM7
A0A087WRS1
A0A087WRS4
A0A087WRT0
A0A087WRT3
A0A087WRU7
A0A087WRW3
A0A087WRW5
A0A087WRY6
A0A087WS03
A0A087WS04
A0A087WS07
A0A087WS15
A0A087WS16
A0A087WS18
A0A087WS23
A0A087WS29
A0A087WS45
A0A087WS83
A0A087WSA4
A0A087WSC0
A0A087WSD0
A0A087WSJ2
A0A087WSK4
A0A087WSK7
A0A087WSN5
A0A087WSP5
A0A087WSP6
A0A087WSQ4
A0A087WSQ5
A0A087WSR2
A0A087WSR8
A0A087WSS2
A0A087WSS7
A0A0A0MQ85
A0A0A0MQ89
A0A0A0MQB2
A0A0A0MQB3
A0A0A0MQE8
A0A0A6YVP0
A0A0A6YVT0
A0A0A6YVU8
A0A0A6YVW8
A0A0A6YVX0
A0A0A6YVY1
A0A0A6YVZ7
A0A0A6YW00
A0A0A6YW07
A0A0A6YW89
A0A0A6YW90
A0A0A6YWA5
A0A0A6YWD3
A0A0A6YWE5
A0A0A6YWF7
A0A0A6YWF8
A0A0A6YWK1
A0A0A6YWM5
A0A0A6YWP3
A0A0A6YWR2
A0A0A6YWR3
A0A0A6YWS6
A0A0A6YWS7
A0A0A6YWU2
A0A0A6YWW5
A0A0A6YWW6
A0A0A6YWX4
A0A0A6YWX7
A0A0A6YX03
A0A0A6YX34
A0A0A6YX61
A0A0A6YX73
A0A0A6YX87
A0A0A6YX89
A0A0A6YXE1
A0A0A6YXE6
A0A0A6YXJ2
A0A0A6YXL2
A0A0A6YXM9
A0A0A6YXN8
A0A0A6YXQ7
A0A0A6YXQ9
A0A0A6YXR2
A0A0A6YXS5
A0A0A6YXU8
A0A0A6YXV5
A0A0A6YXZ1
A0A0A6YXZ8
A0A0A6YY28
A0A0A6YY47
A0A0A6YY53
A0A0A6YY63
A0A0A6YY64
A0A0A6YY91
A0A0A6YYP6
A0A0B4J1E2
A0A0B4J1E6
A0A0B4J1F0
A0A0B4J1F9
A0A0B4J1G0
A0A0B4J1G1
A0A0B4J1M6
A0A0D9SEG8
A0A0G2JDD1
A0A0G2JDF9
A0A0G2JDG8
A0A0G2JDM2
A0A0G2JDQ4
A0A0G2JE09
A0A0G2JE14
A0A0G2JE25
A0A0G2JE27
A0A0G2JE28
A0A0G2JEA5
A0A0G2JEA7
A0A0G2JEC8
A0A0G2JEE8
A0A0G2JEG1
A0A0G2JEJ2
A0A0G2JEJ8
A0A0G2JEK8
A0A0G2JEP2
A0A0G2JEP6
A0A0G2JET0
A0A0G2JEW6
A0A0G2JEY9
A0A0G2JF22
A0A0G2JF53
A0A0G2JF74
A0A0G2JF96
A0A0G2JFC3
A0A0G2JFC7
A0A0G2JFD2
A0A0G2JFD3
A0A0G2JFG0
A0A0G2JFH3
A0A0G2JFH5
A0A0G2JFI5
A0A0G2JFJ9
A0A0G2JFK5
A0A0G2JFM9
A0A0G2JFQ2
A0A0G2JFR3
A0A0G2JFU2
A0A0G2JFW0
A0A0G2JFX0
A0A0G2JFY8
A0A0G2JFZ0
A0A0G2JFZ2
A0A0G2JG09
A0A0G2JG58
A0A0G2JG69
A0A0G2JG93
A0A0G2JG97
A0A0G2JGA6
A0A0G2JGH9
A0A0G2JGI9
A0A0G2JGJ5
A0A0G2JGK5
A0A0G2JGL2
A0A0G2JGM2
A0A0G2JGP4
A0A0G2JGP6
A0A0G2JGP7
A0A0G2JGS5
A0A0G2JGY5
A0A0G2JGZ8
A0A0G2JH17
A0A0J9YMK6
A0A0J9YTQ3
A0A0J9YTQ5
A0A0J9YTU1
A0A0J9YTV1
A0A0J9YTV4
A0A0J9YTY7
A0A0J9YU04
A0A0J9YU20
A0A0J9YU79
A0A0J9YUB8
A0A0J9YUD5
A0A0J9YUE7
A0A0J9YUF9
A0A0J9YUH7
A0A0J9YUK6
A0A0J9YUS9
A0A0J9YUT2
A0A0J9YUW0
A0A0J9YUW8
A0A0J9YUX1
A0A0J9YV17
A0A0J9YV23
A0A0J9YV29
A0A0J9YV33
A0A0J9YV48
A0A0J9YV76
A0A0J9YVA9
A0A0J9YVE6
A0A0J9YVH5
A0A0J9YVJ0
A0A0J9YVJ6
A0A0M3HEP9
A0A0M3HEQ0
A0A0N4SUH6
A0A0N4SUJ4
A0A0N4SUL9
A0A0N4SUP5
A0A0N4SUQ6
A0A0N4SUR5
A0A0N4SUS1
A0A0N4SUS4
A0A0N4SUT7
A0A0N4SUT9
A0A0N4SUX2
A0A0N4SV02
A0A0N4SV05
A0A0N4SV23
A0A0N4SV59
A0A0N4SV60
A0A0N4SV67
A0A0N4SV77
A0A0N4SV83
A0A0N4SV84
A0A0N4SVB3
A0A0N4SVB6
A0A0N4SVC0
A0A0N4SVD5
A0A0N4SVE0
A0A0N4SVE8
A0A0N4SVF2
A0A0N4SVF4
A0A0N4SVF8
A0A0N4SVG1
A0A0N4SVG7
A0A0N4SVH2
A0A0N4SVH3
A0A0N4SVI0
A0A0N4SVK1
A0A0N4SVL0
A0A0N4SVM5
A0A0N4SVM6
A0A0N4SVM9
A0A0N4SVN6
A0A0N4SVP2
A0A0N4SVP8
A0A0N4SVR5
A0A0N4SVX6
A0A0N4SVY9
A0A0N4SW05
A0A0N4SW10
A0A0N4SW60
A0A0N4SW61
A0A0N4SWA2
A0A0N4SWB2
A0A0N4SWC2
A0A0N4SWD2
A0A0N4SWE0
A0A0N4SWE3
A0A0N4SWE9
A0A0N4SWF8
A0A0N4SWH4
A0A0N5E9G7
A0A0R3P9D2
A0A0R4IZW4
A0A0R4IZW5
A0A0R4IZW8
A0A0R4IZX5
A0A0R4IZX6
A0A0R4IZY2
A0A0R4IZY3
A0A0R4IZY5
A0A0R4IZY6
A0A0R4J003
A0A0R4J008
A0A0R4J018
A0A0R4J023
A0A0R4J024
A0A0R4J026
A0A0R4J029
A0A0R4J032
A0A0R4J035
A0A0R4J039
A0A0R4J041
A0A0R4J045
A0A0R4J048
A0A0R4J049
A0A0R4J052
A0A0R4J054
A0A0R4J057
A0A0R4J061
A0A0R4J062
A0A0R4J063
A0A0R4J064
A0A0R4J065
A0A0R4J066
A0A0R4J069
A0A0R4J073
A0A0R4J074
A0A0R4J079
A0A0R4J081
A0A0R4J083
A0A0R4J085
A0A0R4J088
A0A0R4J091
A0A0R4J092
A0A0R4J093
A0A0R4J0A4
A0A0R4J0A6
A0A0R4J0A9
A0A0R4J0B2
A0A0R4J0B3
A0A0R4J0B6
A0A0R4J0C0
A0A0R4J0C2
A0A0R4J0C6
A0A0R4J0D5
A0A0R4J0E3
A0A0R4J0E4
A0A0R4J0F6
A0A0R4J0F7
A0A0R4J0F8
A0A0R4J0G0
A0A0R4J0G1
A0A0R4J0G4
A0A0R4J0G9
A0A0R4J0H1
A0A0R4J0H3
A0A0R4J0H7
A0A0R4J0H9
A0A0R4J0I9
A0A0R4J0J5
A0A0R4J0J6
A0A0R4J0K2
A0A0R4J0K8
A0A0R4J0L5
A0A0R4J0L6
A0A0R4J0M5
A0A0R4J0M6
A0A0R4J0N7
A0A0R4J0N8
A0A0R4J0P4
A0A0R4J0P5
A0A0R4J0P6
A0A0R4J0Q2
A0A0R4J0Q4
A0A0R4J0Q6
A0A0R4J0Q9
A0A0R4J0R1
A0A0R4J0R7
A0A0R4J0S2
A0A0R4J0T3
A0A0R4J0T4
A0A0R4J0T7
A0A0R4J0T8
A0A0R4J0U2
A0A0R4J0U5
A0A0R4J0V3
A0A0R4J0V4
A0A0R4J0W1
A0A0R4J0W4
A0A0R4J0X6
A0A0R4J0X7
A0A0R4J0X9
A0A0R4J0Y2
A0A0R4J0Y5
A0A0R4J0Z4
A0A0R4J100
A0A0R4J101
A0A0R4J104
A0A0R4J109
A0A0R4J110
A0A0R4J111
A0A0R4J112
A0A0R4J114
A0A0R4J115
A0A0R4J122
A0A0R4J131
A0A0R4J136
A0A0R4J138
A0A0R4J139
A0A0R4J171
A0A0R4J174
A0A0R4J181
A0A0R4J183
A0A0R4J187
A0A0R4J191
A0A0R4J1A0
A0A0R4J1A1
A0A0R4J1A8
A0A0R4J1B0
A0A0R4J1B1
A0A0R4J1B4
A0A0R4J1C2
A0A0R4J1C7
A0A0R4J1C9
A0A0R4J1D6
A0A0R4J1D9
A0A0R4J1E2
A0A0R4J1E6
A0A0R4J1F1
A0A0R4J1F2
A0A0R4J1F4
A0A0R4J1F5
A0A0R4J1F6
A0A0R4J1G4
A0A0R4J1G5
A0A0R4J1G9
A0A0R4J1H1
A0A0R4J1H2
A0A0R4J1I9
A0A0R4J1J2
A0A0R4J1K0
A0A0R4J1K4
A0A0R4J1K6
A0A0R4J1K9
A0A0R4J1L2
A0A0R4J1L4
A0A0R4J1L8
A0A0R4J1N0
A0A0R4J1N2
A0A0R4J1N3
A0A0R4J1N5
A0A0R4J1N6
A0A0R4J1P8
A0A0R4J1Q0
A0A0R4J1Q7
A0A0R4J1R1
A0A0R4J1S3
A0A0R4J1U2
A0A0R4J1U4
A0A0R4J1V5
A0A0R4J1W7
A0A0R4J1X4
A0A0R4J1Y0
A0A0R4J1Y1
A0A0R4J1Z1
A0A0R4J1Z5
A0A0R4J1Z6
A0A0R4J1Z7
A0A0R4J203
A0A0R4J206
A0A0R4J211
A0A0R4J213
A0A0R4J216
A0A0R4J237
A0A0R4J238
A0A0R4J239
A0A0R4J256
A0A0R4J263
A0A0R4J268
A0A0R4J285
A0A0R4J289
A0A0R4J293
A0A0R4J297
A0A0R4J2C2
A0A0R4J2C3
A0A0R4J2D3
A0A0R4J2D4
A0A0U1RNF5
A0A0U1RNG2
A0A0U1RNG4
A0A0U1RNH9
A0A0U1RNJ0
A0A0U1RNJ4
A0A0U1RNJ8
A0A0U1RNK4
A0A0U1RNK7
A0A0U1RNP0
A0A0U1RNQ5
A0A0U1RNR5
A0A0U1RNT0
A0A0U1RNT3
A0A0U1RNU9
A0A0U1RNX7
A0A0U1RNY1
A0A0U1RNY4
A0A0U1RNZ5
A0A0U1RP09
A0A0U1RP23
A0A0U1RP27
A0A0U1RP31
A0A0U1RP39
A0A0U1RP41
A0A0U1RP44
A0A0U1RP46
A0A0U1RP53
A0A0U1RP78
A0A0U1RP84
A0A0U1RP99
A0A0U1RPA7
A0A0U1RPB3
A0A0U1RPB4
A0A0U1RPC6
A0A0U1RPE3
A0A0U1RPE8
A0A0U1RPE9
A0A0U1RPF5
A0A0U1RPF6
A0A0U1RPH6
A0A0U1RPJ2
A0A0U1RPK5
A0A0U1RPK7
A0A0U1RPL2
A0A0U1RPQ3
A0A0U1RPS1
A0A0U1RPS2
A0A0U1RPU2
A0A0U1RPU9
A0A0U1RPV8
A0A0U1RPW0
A0A0U1RPW7
A0A0U1RPX5
A0A0U1RPY5
A0A0U1RPZ4
A0A0U1RQ01
A0A0U1RQ24
A0A0U1RQ65
A0A0U1RQ73
A0A0U1RQ82
A0A0U1RQ87
A0A0U1RQ91
A0A0U1RQ94
A0A0U1RQA4
A0A0U1RQB6
A0A140LHA1
A0A140LHB2
A0A140LHC9
A0A140LHD4
A0A140LHD8
A0A140LHE2
A0A140LHF4
A0A140LHF5
A0A140LHG3
A0A140LHG4
A0A140LHG5
A0A140LHI4
A0A140LHI9
A0A140LHJ0
A0A140LHJ8
A0A140LHJ9
A0A140LHL7
A0A140LHN1
A0A140LHN2
A0A140LHN5
A0A140LHP6
A0A140LHQ3
A0A140LHQ6
A0A140LHS9
A0A140LHT0
A0A140LHT3
A0A140LHT6
A0A140LHU2
A0A140LHV4
A0A140LHY7
A0A140LHZ8
A0A140LHZ9
A0A140LI01
A0A140LI05
A0A140LI08
A0A140LI12
A0A140LI14
A0A140LI26
A0A140LI29
A0A140LI32
A0A140LI38
A0A140LI40
A0A140LI59
A0A140LI90
A0A140LIA5
A0A140LIC2
A0A140LID0
A0A140LID7
A0A140LIE3
A0A140LIF4
A0A140LIG6
A0A140LIG9
A0A140LIJ3
A0A140LIK5
A0A140LIK7
A0A140LIM0
A0A140LIP8
A0A140LIQ9
A0A140LIR2
A0A140LIR4
A0A140LIV3
A0A140LIW6
A0A140LIW8
A0A140LIX0
A0A140LIZ1
A0A140LIZ3
A0A140LIZ6
A0A140LJ10
A0A140LJ26
A0A140LJ40
A0A140LJ53
A0A140LJ55
A0A140LJ72
A0A140LJ88
A0A140LJA3
A0A140LJB7
A0A140LJC1
A0A140LJD7
A0A140LJF5
A0A140LJJ5
A0A140LJK1
A0A140T8I4
A0A140T8I9
A0A140T8J4
A0A140T8J5
A0A140T8J8
A0A140T8K2
A0A140T8K4
A0A140T8K7
A0A140T8K8
A0A140T8L8
A0A140T8Q2
A0A140T8Q8
A0A140T8R6
A0A140T8S1
A0A140T8T9
A0A140T8U0
A0A140T8U1
A0A140T8V0
A0A140T8V5
A0JNU3
A0PK57
A0S860
A1L317
A1L3P4
A1L3Q1
A1Z198
A2A432
A2A468
A2A513
A2A5F7
A2A5N7
A2A5N8
A2A5R0
A2A5Z6
A2A6H6
A2A6I0
A2A6I3
A2A6I5
A2A6I8
A2A6J0
A2A6J1
A2A6J2
A2A6Q5
A2A6Q8
A2A7H4
A2A7H5
A2A7H6
A2A7Q9
A2A863
A2A870
A2A8L5
A2A8R0
A2A8V8
A2A8V9
A2A8W8
A2A935
A2A983
A2A9M4
A2A9M5
A2AAC0
A2ABV5
A2ACJ2
A2ACM0
A2ACT7
A2AD03
A2ADH1
A2ADU8
A2ADU9
A2ADY9
A2AE91
A2AEG2
A2AEI4
A2AEI5
A2AET8
A2AEU1
A2AF47
A2AFG7
A2AFG8
A2AFI8
A2AFJ8
A2AFQ2
A2AGH5
A2AGH6
A2AGL3
A2AGQ2
A2AGQ3
A2AGQ4
A2AGQ5
A2AGQ6
A2AGQ7
A2AGQ8
A2AGQ9
A2AGR0
A2AGR1
A2AH22
A2AHD2
A2AHL1
A2AHZ2
A2AHZ3
A2AIL4
A2AIV8
A2AIX1
A2AJ15
A2AJ88
A2AJP5
A2AK42
A2AK44
A2AK57
A2AK60
A2AK61
A2AK62
A2AKQ0
A2AKQ8
A2AL36
A2AL49
A2AL50
A2ALD2
A2ALK8
A2ALL9
A2ALS5
A2AM29
A2AM35
A2AM37
A2AMI2
A2AMI3
A2AMI4
A2AMI6
A2AMI7
A2AMS2
A2AMS3
A2AMS5
A2AMS6
A2AMS7
A2AMS8
A2AN37
A2ANC1
A2ANF0
A2ANQ2
A2AP18
A2APB8
A2APF4
A2APF5
A2APM1
A2APM2
A2APM3
A2APM4
A2APM5
A2APR8
A2APS1
A2APV2
A2APY7
A2AQ14
A2AQ17
A2AQ19
A2AQ50
A2AQ51
A2AQ52
A2AQ92
A2AQ99
A2AQA9
A2AQB2
A2AQM9
A2AQN0
A2AR26
A2AR27
A2ARA8
A2ARD6
A2ARD7
A2ARI4
A2ARP1
A2ARV4
A2ARZ0
A2AS89
A2ASF9
A2ASQ1
A2ASS6
A2ASU6
A2ASV2
A2AT37
A2AT78
A2AT79
A2AT85
A2AT91
A2AT93
A2ATE0
A2ATE3
A2ATE5
A2ATG2
A2ATG3
A2ATJ7
A2ATJ9
A2ATU0
A2ATW2
A2AU89
A2AU90
A2AU91
A2AUA2
A2AUA4
A2AUF9
A2AUG1
A2AUK5
A2AUK6
A2AUK7
A2AUK8
A2AUM9
A2AUP1
A2AUP3
A2AUP4
A2AUP5
A2AV11
A2AV13
A2AV74
A2AV75
A2AVA9
A2AVB0
A2AVB5
A2AVC0
A2AVC4
A2AVK5
A2AVW1
A2AVX6
A2AW40
A2AW41
A2AW79
A2AWB5
A2AWF8
A2AWF9
A2AWR5
A2BDV6
A2BDX3
A2BDX4
A2BDZ3
A2BDZ7
A2BE28
A2BE91
A2BFA9
A2BFB0
A2BFB1
A2BFB2
A2BH40
A2BHP6
A2BHQ2
A2CEE5
A2CEE6
A2CEE7
A2CEE8
A2CEK1
A2CG28
A2CG49
A2CGA3
A2CGA5
A2JY27
A2RSQ0
A2RST1
A2RSY1
A2RT31
A2RT62
A2RT67
A2RTF1
A2RTN7
A2RTV8
A3KFX0
A3KGB4
A3KGF7
A3KGS3
A3KGV1
A3KGY3
A3KGY4
A3KGY9
A3KN90
A3KPP5
A3KPP7
A4FUQ5
A4QPC5
A4QPD3
A4UUI2
A6BLY7
A6H5Y3
A6H650
A6H6A5
A6H6J2
A6H8H5
A6PWP7
A6PWP8
A6X8Z5
A6ZI46
A6ZI47
A7E1W8
A7L9Z8
A7MCT6
A7UAK4
A7UAK5
A7UAK8
A8DUK4
A8E0Y8
A8Y5G5
A8Y5I3
B0QZH7
B0QZH8
B0QZP1
B0QZV3
B0V2N1
B0V3P3
B1AQ75
B1AQ77
B1AQJ3
B1AR17
B1AR82
B1ARB9
B1ARC0
B1ARZ3
B1AS29
B1AS42
B1ASC1
B1ASL3
B1ASP2
B1ASP3
B1AT03
B1AT32
B1AT33
B1AT34
B1ATC3
B1ATD4
B1ATD5
B1ATE0
B1ATJ5
B1ATU4
B1ATV3
B1ATY9
B1ATZ0
B1ATZ1
B1AU41
B1AUC7
B1AUD6
B1AUD7
B1AUF1
B1AUF2
B1AUH1
B1AUN2
B1AUN3
B1AUX5
B1AUY1
B1AUY2
B1AUY3
B1AV20
B1AVA4
B1AVA5
B1AVA6
B1AVK5
B1AW74
B1AW75
B1AWC8
B1AWC9
B1AWD0
B1AWD1
B1AWD8
B1AWD9
B1AWE0
B1AWE1
B1AWM4
B1AWM5
B1AWN9
B1AWT2
B1AWT3
B1AWT4
B1AWZ7
B1AXF2
B1AXF3
B1AXP6
B1AXR2
B1AY13
B1AYH7
B1AZ99
B1AZI6
B1AZP2
B1B0C7
B1B0D1
B1B0E8
B1B0E9
B1B0F0
B1B0F1
B1B0X1
B1B0X2
B1B0X3
B1B0X4
B1B1A8
B1PQU4
B2GVN8
B2RPS7
B2RPY5
B2RQ57
B2RQA1
B2RQA5
B2RQC2
B2RQC6
B2RQL0
B2RQX9
B2RRD7
B2RS91
B2RSG7
B2RSH2
B2RSU7
B2RT14
B2RT33
B2RU85
B2RUG9
B2RUJ5
B2RUR8
B2RUS0
B2RUS7
B2RV77
B2RVI8
B2RVL1
B2RVX8
B2RVZ0
B2RVZ1
B2RWS6
B2RWW0
B2RXA7
B2RXA8
B2RXC1
B2RXC2
B2RXC6
B2RXE2
B2RXQ2
B2RXV4
B2RXW8
B2RXX5
B2RXZ2
B2RY58
B2RY83
B2Z891
B2Z892
B2Z893
B2Z894
B5B2N2
B5B2N7
B5KM66
B5THE2
B7FAU2
B7ZBV3
B7ZBV4
B7ZBV5
B7ZBV6
B7ZBV7
B7ZBV8
B7ZBV9
B7ZBW1
B7ZBW2
B7ZC58
B7ZC94
B7ZCD3
B7ZCJ0
B7ZCJ1
B7ZCM8
B7ZCM9
B7ZCN0
B7ZMP6
B8JJC1
B8JJC8
B8JJD1
B8JJD2
B8JJD3
B8JJD5
B8JJD6
B8JJD7
B8JJD8
B8JJG3
B8JJG6
B8JJG7
B8JJG8
B8JJG9
B8JJI9
B8JJN0
B8JK07
B8JK39
B8QI34
B8QI36
B8XCJ6
B9EHG2
B9EHN5
B9EHT4
B9EI38
B9EII2
B9EJ22
B9EJ54
B9EJ86
B9EJX5
B9EKI3
B9EKI5
B9EKS2
C6KI89
D0VY58
D3YTK8
D3YTP0
D3YTP8
D3YTQ6
D3YU13
D3YU50
D3YU89
D3YUA2
D3YUC9
D3YUD3
D3YUD4
D3YUD8
D3YUF1
D3YUF3
D3YUF4
D3YUL8
D3YUM3
D3YUQ9
D3YUS5
D3YUT6
D3YUW4
D3YUW7
D3YUX8
D3YUX9
D3YV37
D3YV58
D3YV78
D3YVF0
D3YVG0
D3YVG8
D3YVI9
D3YVM7
D3YVQ8
D3YVS6
D3YVU3
D3YVX5
D3YVX9
D3YVY2
D3YVZ1
D3YW09
D3YW26
D3YWD1
D3YWD4
D3YWG4
D3YWH8
D3YWI0
D3YWK6
D3YWQ0
D3YWS5
D3YWZ9
D3YX07
D3YX15
D3YX36
D3YX79
D3YXF5
D3YXI6
D3YXJ0
D3YXL2
D3YXM0
D3YXN8
D3YXP2
D3YXQ6
D3YXW9
D3YXZ3
D3YY11
D3YY23
D3YY68
D3YY99
D3YYC3
D3YYI5
D3YYI7
D3YYI8
D3YYL7
D3YYM6
D3YYP8
D3YYQ7
D3YYR5
D3YYU4
D3YYY8
D3YYZ0
D3YZ19
D3YZ20
D3YZG8
D3YZH4
D3YZP6
D3YZR2
D3YZR3
D3YZT9
D3YZU1
D3YZV2
D3YZV7
D3YZX5
D3YZZ5
D3Z075
D3Z091
D3Z0J1
D3Z0K8
D3Z0M9
D3Z0Q9
D3Z0R1
D3Z0X1
D3Z0Y2
D3Z112
D3Z135
D3Z150
D3Z175
D3Z1A3
D3Z1A9
D3Z1B1
D3Z1K6
D3Z1M7
D3Z1N9
D3Z1S4
D3Z1T6
D3Z1U0
D3Z1W5
D3Z1X2
D3Z1Y1
D3Z217
D3Z224
D3Z230
D3Z249
D3Z280
D3Z2A3
D3Z2C4
D3Z2J9
D3Z2P8
D3Z2V2
D3Z2W1
D3Z2W7
D3Z313
D3Z356
D3Z360
D3Z380
D3Z3G5
D3Z3H0
D3Z3H2
D3Z3I6
D3Z3L3
D3Z3S7
D3Z3Y1
D3Z473
D3Z477
D3Z494
D3Z4B0
D3Z4D8
D3Z4E0
D3Z4E8
D3Z4I0
D3Z4S2
D3Z4T5
D3Z4Z0
D3Z519
D3Z539
D3Z5A6
D3Z5B4
D3Z5G3
D3Z5J3
D3Z5M3
D3Z5M8
D3Z5N8
D3Z5R4
D3Z5U5
D3Z5Y7
D3Z603
D3Z612
D3Z656
D3Z685
D3Z694
D3Z6C8
D3Z6E3
D3Z6H8
D3Z6I7
D3Z6J0
D3Z6K4
D3Z6K5
D3Z6K8
D3Z6L6
D3Z6L9
D3Z6M7
D3Z6V6
D3Z6V8
D3Z6Z0
D3Z703
D3Z706
D3Z751
D3Z763
D3Z789
D3Z7F2
D3Z7G6
D3Z7I5
D3Z7J4
D3Z7N2
D3Z7P3
D3Z7Q7
D3Z7S1
D3Z7U5
D4QGC2
D6RCH6
D6RCV3
D6RCY8
D6RD06
D6RDQ6
D6RDT4
D6RE22
D6RE33
D6REH5
D6REU3
D6REU9
D6REV1
D6RFC7
D6RFD3
D6RFN1
D6RFQ4
D6RFT0
D6RFT4
D6RFT8
D6RFU4
D6RG54
D6RGA0
D6RGQ2
D6RGQ8
D6RGR1
D6RH52
D6RH62
D6RH77
D6RHB8
D6RHK5
D6RHP0
D6RHP8
D6RHR6
D6RHT1
D6RI36
D6RI62
D6RIK3
D6RIL1
D6RIL5
D6RIN7
D6RIP6
D6RJ39
D6RJ41
D6RJ66
D6RJ73
D6RJJ7
D6RJK5
D6RJL0
D6RJL7
D6RJM5
D7PDD4
E0CX24
E0CX25
E0CX53
E0CX59
E0CX65
E0CX86
E0CX90
E0CXA6
E0CXC2
E0CXC9
E0CXD0
E0CXF4
E0CXG8
E0CXI6
E0CXK9
E0CXM8
E0CXN3
E0CXT0
E0CXT5
E0CXV1
E0CXV8
E0CY02
E0CY04
E0CY05
E0CY67
E0CY89
E0CY93
E0CYH5
E0CYI5
E0CYI8
E0CYI9
E0CYJ2
E0CYK5
E0CYM8
E0CYR2
E0CYR9
E0CYT1
E0CYU6
E0CYU8
E0CYV8
E0CYX5
E0CZ20
E0CZ53
E0CZ62
E0CZ68
E0CZC0
E0CZC8
E0CZC9
E0CZD6
E0CZD8
E0CZE3
E0CZE7
E0CZG7
E1AZ71
E9PUC8
E9PUE2
E9PUH5
E9PUI5
E9PUJ0
E9PUJ2
E9PUK3
E9PUK6
E9PUK8
E9PUL6
E9PUM5
E9PUM6
E9PUM9
E9PUN0
E9PUN1
E9PUN2
E9PUN9
E9PUP0
E9PUP1
E9PUP3
E9PUQ8
E9PUR6
E9PUV2
E9PUX1
E9PUX4
E9PUZ0
E9PUZ5
E9PV04
E9PV12
E9PV14
E9PV24
E9PV36
E9PV85
E9PV91
E9PV98
E9PVD5
E9PVJ5
E9PVM2
E9PVP3
E9PVP5
E9PVQ2
E9PVR4
E9PVR5
E9PVS2
E9PVU0
E9PVU6
E9PVW2
E9PVX1
E9PVZ7
E9PVZ8
E9PW37
E9PW43
E9PW68
E9PW98
E9PWA9
E9PWB6
E9PWG2
E9PWG6
E9PWI6
E9PWL0
E9PWL5
E9PWM5
E9PWP6
E9PWP7
E9PWQ3
E9PWT1
E9PWU0
E9PWV2
E9PWW8
E9PWW9
E9PWX0
E9PWY2
E9PWZ6
E9PX09
E9PX29
E9PX39
E9PX48
E9PX60
E9PX67
E9PX82
E9PX84
E9PX88
E9PX90
E9PXB7
E9PXB8
E9PXD2
E9PXE1
E9PXE2
E9PXF8
E9PXG1
E9PXH6
E9PXI8
E9PXM9
E9PXP1
E9PXR8
E9PXT7
E9PXV8
E9PXW4
E9PXX0
E9PXX9
E9PXY8
E9PXZ3
E9PXZ5
E9PY12
E9PY13
E9PY14
E9PY29
E9PY32
E9PY46
E9PY51
E9PY90
E9PYA3
E9PYB3
E9PYC0
E9PYD7
E9PYF4
E9PYG6
E9PYH0
E9PYH6
E9PYI7
E9PYK0
E9PYL0
E9PYL9
E9PYN9
E9PYP4
E9PYQ9
E9PYR1
E9PYS6
E9PYT0
E9PYV1
E9PYX6
E9PYY2
E9PYY9
E9PYZ4
E9PZ16
E9PZ39
E9PZ73
E9PZ87
E9PZ96
E9PZA7
E9PZB0
E9PZB3
E9PZC2
E9PZC9
E9PZD0
E9PZD4
E9PZF0
E9PZG0
E9PZI9
E9PZN4
E9PZQ0
E9PZR8
E9PZS7
E9PZT2
E9PZT7
E9PZU2
E9PZW4
E9PZW8
E9PZZ6
E9Q007
E9Q028
E9Q035
E9Q045
E9Q050
E9Q083
E9Q0A3
E9Q0B8
E9Q0D4
E9Q0F0
E9Q0L2
E9Q0M4
E9Q0M9
E9Q0Q2
E9Q0W1
E9Q0W3
E9Q0Y4
E9Q0Z1
E9Q163
E9Q174
E9Q175
E9Q1D4
E9Q1G8
E9Q1P2
E9Q1Q9
E9Q1R6
E9Q1R7
E9Q1W3
E9Q1Y9
E9Q223
E9Q279
E9Q283
E9Q286
E9Q287
E9Q294
E9Q2A2
E9Q2B2
E9Q2D0
E9Q2D4
E9Q2H8
E9Q2K4
E9Q2R3
E9Q2Y1
E9Q2Y4
E9Q305
E9Q310
E9Q326
E9Q329
E9Q355
E9Q372
E9Q382
E9Q387
E9Q394
E9Q397
E9Q3D4
E9Q3E1
E9Q3G2
E9Q3G8
E9Q3H1
E9Q3H6
E9Q3H9
E9Q3K2
E9Q3L1
E9Q3M5
E9Q3P4
E9Q3S2
E9Q3U6
E9Q3W6
E9Q401
E9Q407
E9Q411
E9Q414
E9Q415
E9Q438
E9Q468
E9Q479
E9Q4A4
E9Q4A5
E9Q4D0
E9Q4F3
E9Q4G0
E9Q4H1
E9Q4I8
E9Q4L9
E9Q4M1
E9Q4N6
E9Q4N7
E9Q4R3
E9Q4S1
E9Q4S7
E9Q4T0
E9Q4X2
E9Q4Y1
E9Q4Y4
E9Q4Z2
E9Q504
E9Q509
E9Q512
E9Q518
E9Q545
E9Q546
E9Q547
E9Q549
E9Q550
E9Q552
E9Q554
E9Q555
E9Q557
E9Q577
E9Q589
E9Q593
E9Q5C2
E9Q5C3
E9Q5D6
E9Q5E2
E9Q5F1
E9Q5F9
E9Q5G3
E9Q5G9
E9Q5I3
E9Q5K8
E9Q5N7
E9Q5P8
E9Q5T3
E9Q5U8
E9Q5Z5
E9Q5Z6
E9Q604
E9Q605
E9Q614
E9Q649
E9Q682
E9Q6A3
E9Q6B8
E9Q6C2
E9Q6D8
E9Q6E5
E9Q6E8
E9Q6I8
E9Q6J4
E9Q6J6
E9Q6J7
E9Q6L0
E9Q6L3
E9Q6L7
E9Q6Q2
E9Q6Q8
E9Q6R1
E9Q6R4
E9Q6S2
E9Q6V6
E9Q6X9
E9Q6Y4
E9Q6Z0
E9Q700
E9Q708
E9Q725
E9Q731
E9Q740
E9Q745
E9Q776
E9Q7B5
E9Q7C1
E9Q7C5
E9Q7C7
E9Q7C9
E9Q7D5
E9Q7E2
E9Q7E6
E9Q7E8
E9Q7G0
E9Q7G1
E9Q7K1
E9Q7L5
E9Q7N4
E9Q7P1
E9Q7P5
E9Q7Q0
E9Q7S0
E9Q7T0
E9Q7U0
E9Q7W1
E9Q7X7
E9Q7Y0
E9Q816
E9Q848
E9Q857
E9Q863
E9Q880
E9Q8A4
E9Q8A6
E9Q8B5
E9Q8B6
E9Q8F4
E9Q8F6
E9Q8K6
E9Q8L0
E9Q8M3
E9Q8M8
E9Q8N5
E9Q8P6
E9Q8V6
E9Q925
E9Q941
E9Q985
E9Q987
E9Q9A0
E9Q9A5
E9Q9A6
E9Q9A9
E9Q9B4
E9Q9B7
E9Q9F3
E9Q9F5
E9Q9F6
E9Q9K5
E9Q9M0
E9Q9P4
E9Q9P8
E9Q9Q0
E9Q9Q6
E9Q9S3
E9Q9S7
E9Q9T3
E9Q9T8
E9Q9U0
E9Q9U1
E9Q9Y2
E9Q9Z6
E9Q9Z9
E9QA15
E9QA16
E9QAB8
E9QAC6
E9QAD0
E9QAE4
E9QAH1
E9QAH8
E9QAJ6
E9QAK1
E9QAK6
E9QAM5
E9QAN8
E9QAP4
E9QAP7
E9QAQ2
E9QAQ8
E9QAS7
E9QAT4
E9QAT7
E9QB01
E9QB04
E9QJQ9
E9QJS0
E9QJS1
E9QJS7
E9QJU6
E9QJU8
E9QJW9
E9QJX9
E9QK20
E9QK39
E9QK53
E9QK83
E9QK89
E9QKA4
E9QKB1
E9QKB6
E9QKC0
E9QKD9
E9QKE4
E9QKE8
E9QKE9
E9QKG8
E9QKH0
E9QKI2
E9QKK1
E9QKM8
E9QKQ5
E9QKV6
E9QL31
E9QL43
E9QL53
E9QL65
E9QL79
E9QLC0
E9QLE4
E9QLE5
E9QLK7
E9QLM4
E9QLQ3
E9QLQ9
E9QLW0
E9QM38
E9QM61
E9QM73
E9QMC1
E9QME3
E9QME5
E9QMF1
E9QMI8
E9QMI9
E9QMJ5
E9QMJ8
E9QMK2
E9QMK3
E9QMN8
E9QMR2
E9QMT1
E9QMU1
E9QMW9
E9QMX7
E9QMY1
E9QN08
E9QN12
E9QN14
E9QN47
E9QN59
E9QN92
E9QN99
E9QNA7
E9QNB8
E9QNI1
E9QNJ9
E9QNK5
E9QNL4
E9QNL5
E9QNM5
E9QNN1
E9QNV2
E9QNX7
E9QNX9
E9QNY6
E9QNY9
E9QNZ9
E9QP13
E9QP19
E9QP44
E9QP54
E9QP56
E9QP84
E9QPD7
E9QPE2
E9QPE7
E9QPG8
E9QPH0
E9QPI5
E9QPK4
E9QPK5
E9QPM7
E9QPN7
E9QPQ6
E9QPQ8
E9QPS1
E9QPS7
E9QPT7
E9QPT8
E9QPU1
E9QPW3
E9QPX3
E9QPX8
E9QPY6
E9QQ10
E9QQ21
E9QQ26
E9QQ30
E9QQ35
E9QQ38
E9QQ96
E9QQ99
F2Z3U4
F2Z418
F2Z459
F2Z461
F2Z468
F2Z469
F2Z480
F2Z4A9
F6Q3G7
F6Q4R2
F6Q8N5
F6QF13
F6QG63
F6QG91
F6QH05
F6QJR6
F6QJV5
F6QL70
F6QLP8
F6QNC8
F6QPF7
F6QPV9
F6QQQ6
F6QXK7
F6QZ02
F6QZ23
F6QZR7
F6R2A2
F6R2G3
F6R307
F6R4N2
F6R6R4
F6RCC5
F6RCF6
F6RDH3
F6RDI8
F6RGN9
F6RL36
F6RNN2
F6RQD1
F6RSC2
F6RT60
F6RT95
F6RUP6
F6S070
F6S365
F6S5E4
F6S7B0
F6S7E8
F6SBR5
F6SC55
F6SEU4
F6SFD2
F6SFQ3
F6SIJ4
F6SJH4
F6SJX8
F6SKQ8
F6SL55
F6SLK1
F6SRP4
F6SS74
F6SUV7
F6SX36
F6T2Z7
F6T4M4
F6T8U6
F6T8X6
F6TAL7
F6TBV1
F6TCD3
F6TCM4
F6TFC9
F6TFN2
F6TGL6
F6TJX7
F6TK14
F6TK25
F6TKI1
F6TLW1
F6TN80
F6TPL1
F6TQ32
F6TQN9
F6TQW2
F6TRR6
F6TTJ9
F6TUN6
F6TW20
F6TWR1
F6TY56
F6TYF8
F6TZK4
F6U238
F6U338
F6U5L3
F6UAC8
F6UC55
F6UDG9
F6UFZ5
F6UGP0
F6UI76
F6UIL7
F6UK16
F6UKC6
F6UKF4
F6ULG6
F6ULQ4
F6UP26
F6UT01
F6UU81
F6UUZ3
F6UYN4
F6V0P5
F6V2U0
F6V4V3
F6V5I7
F6V5S5
F6V6F0
F6V7B7
F6V8R7
F6VAN0
F6VBP6
F6VBR4
F6VBT9
F6VBV0
F6VCK5
F6VG99
F6VJC5
F6VL06
F6VQX8
F6VR53
F6VSS8
F6VT22
F6VV02
F6VV40
F6VXB8
F6VZ99
F6W0I8
F6W1T9
F6W6U3
F6WB49
F6WHL0
F6WIX7
F6WKY8
F6WL03
F6WMJ3
F6WN33
F6WPM5
F6WQR2
F6WSM5
F6WSZ3
F6WV21
F6X0V1
F6X2U6
F6X333
F6X3X7
F6X8F4
F6X9B6
F6XAI7
F6XIX0
F6XJP7
F6XL79
F6XPL0
F6XR06
F6XRE6
F6XSW4
F6XTT6
F6XU19
F6XW53
F6XWY6
F6XX07
F6XX36
F6XXE6
F6Y027
F6Y0S3
F6Y2A6
F6Y2U8
F6Y5U1
F6Y9T6
F6YGA3
F6YH22
F6YIN5
F6YIU3
F6YNY8
F6YRW4
F6YWG4
F6YX19
F6YXU0
F6Z3M4
F6Z405
F6Z6D6
F6Z9S8
F6ZAB0
F6ZAW1
F6ZDC5
F6ZDE5
F6ZDS4
F6ZFB8
F6ZFP8
F6ZFQ8
F6ZFU0
F6ZGG4
F6ZGI7
F6ZJ27
F6ZJ55
F6ZK01
F6ZMJ4
F6ZQA3
F6ZRL3
F6ZSN2
F6ZUS0
F7A0H7
F7A5H7
F7A6P6
F7AC31
F7AD18
F7ANJ3
F7AR15
F7AUV3
F7AXP1
F7AYC4
F7AYZ6
F7B0S9
F7B478
F7B5B5
F7B5D6
F7B603
F7B6F7
F7B6I3
F7B9R2
F7BB44
F7BBC1
F7BBM8
F7BDU9
F7BG02
F7BHL0
F7BJH9
F7BK35
F7BL62
F7BPW6
F7BQG5
F7BQL8
F7BQS0
F7BQW7
F7BRC1
F7BTP0
F7BWJ7
F7BWM1
F7BZ65
F7C134
F7C528
F7C950
F7C9P2
F7CBP1
F7CBX2
F7CD11
F7CE65
F7CGG2
F7CHS2
F7CII1
F7CK55
F7CN67
F7CNJ1
F7CPA3
F7CSZ6
F7CT68
F7CTY9
F7CUX5
F7CVL0
F7CWV4
F7CXE4
F7CZ64
F7D574
F7D651
F7D980
F7DAB1
F7DCH5
F7DCJ0
F7DCW4
F7DFD7
F8VPJ9
F8VPK0
F8VPK5
F8VPK6
F8VPL1
F8VPL2
F8VPL4
F8VPN4
F8VPN7
F8VPQ4
F8VPQ6
F8VPR1
F8VPR5
F8VPT3
F8VPU0
F8VPV0
F8VPX1
F8VPX2
F8VPY2
F8VPZ5
F8VQ01
F8VQ06
F8VQ18
F8VQ29
F8VQ40
F8VQ52
F8VQ54
F8VQ72
F8VQ84
F8VQ87
F8VQ88
F8VQ90
F8VQC1
F8VQC7
F8VQC9
F8VQE0
F8VQF9
F8VQH0
F8VQI6
F8VQJ3
F8VQK0
F8VQK4
F8VQK6
F8VQL0
F8VQM0
F8VQM5
F8WGB2
F8WGK6
F8WHP5
F8WHU6
F8WI37
F8WIC0
F8WIJ5
F8WIM6
F8WJB0
G1K381
G3UVU2
G3UVU3
G3UVU6
G3UVX0
G3UW74
G3UW78
G3UW81
G3UWA8
G3UWB6
G3UWC3
G3UWD2
G3UWD6
G3UWD7
G3UWD9
G3UWE4
G3UWG2
G3UWI4
G3UWI5
G3UWJ9
G3UWM5
G3UWN4
G3UWN7
G3UWQ2
G3UWR8
G3UWS1
G3UWT3
G3UWV6
G3UWX1
G3UWZ3
G3UX24
G3UX38
G3UX50
G3UX51
G3UX64
G3UX68
G3UX69
G3UX72
G3UX95
G3UXA7
G3UXC9
G3UXD0
G3UXL2
G3UXN3
G3UXP5
G3UXP9
G3UXT0
G3UXT5
G3UXW9
G3UXX3
G3UXX7
G3UXY8
G3UY15
G3UY45
G3UY51
G3UY52
G3UY69
G3UY98
G3UYB5
G3UYE9
G3UYF5
G3UYI8
G3UYK5
G3UYL9
G3UYM8
G3UYQ4
G3UYR0
G3UYS1
G3UYT1
G3UYV3
G3UYV9
G3UZ05
G3UZ38
G3UZ46
G3UZ50
G3UZ79
G3UZ89
G3UZC8
G3UZH0
G3UZH3
G3UZI0
G3UZP2
G3UZP3
G3UZS3
G3UZT3
G3UZW7
G3UZY9
G3UZZ2
G3UZZ7
G3X8P5
G3X8P9
G3X8Q1
G3X8Q9
G3X8R4
G3X8S2
G3X8S4
G3X8V6
G3X8W3
G3X8W7
G3X8X0
G3X8Y7
G3X8Y8
G3X8Z1
G3X8Z6
G3X8Z7
G3X905
G3X908
G3X912
G3X914
G3X925
G3X928
G3X932
G3X939
G3X940
G3X942
G3X943
G3X956
G3X960
G3X972
G3X973
G3X986
G3X992
G3X995
G3X9B1
G3X9D2
G3X9D9
G3X9F1
G3X9F2
G3X9F5
G3X9G6
G3X9H8
G3X9I6
G3X9J1
G3X9K0
G3X9K7
G3X9L6
G3X9L8
G3X9Q1
G3X9S2
G3X9V4
G3X9W7
G3X9Y6
G3X9Y9
G3X9Z0
G3X9Z2
G3X9Z4
G3X9Z7
G3XA00
G3XA02
G3XA14
G3XA17
G3XA30
G3XA35
G3XA48
G3XA51
G3XA53
G3XA57
G5E811
G5E814
G5E825
G5E829
G5E838
G5E843
G5E845
G5E849
G5E852
G5E861
G5E866
G5E870
G5E874
G5E882
G5E884
G5E891
G5E894
G5E895
G5E896
G5E898
G5E899
G5E8A9
G5E8B1
G5E8F1
G5E8F4
G5E8F8
G5E8G2
G5E8G6
G5E8H1
G5E8H5
G5E8H9
G5E8I2
G5E8I7
G5E8I8
G5E8J0
G5E8J1
G5E8J7
G5E8K5
G5E8N3
G5E8N7
G5E8P0
G5E8P2
G5E8Q8
G5E8R3
G5E8T3
G5E8T4
G5E8T9
G5E8U4
G5E8U5
G5E8U8
G5E8Y0
G5E8Z2
G5E8Z4
G5E922
H3BIX5
H3BIY5
H3BIZ1
H3BJ14
H3BJ26
H3BJ35
H3BJ42
H3BJ52
H3BJ53
H3BJ66
H3BJ71
H3BJ74
H3BJ84
H3BJA7
H3BJC3
H3BJF6
H3BJG4
H3BJH8
H3BJI1
H3BJI6
H3BJJ8
H3BJK2
H3BJL4
H3BJL7
H3BJM2
H3BJM3
H3BJN3
H3BJQ9
H3BJS0
H3BJS5
H3BJU5
H3BJU8
H3BJW7
H3BJY7
H3BK24
H3BK33
H3BK44
H3BK47
H3BK48
H3BK99
H3BKB9
H3BKC4
H3BKC8
H3BKD2
H3BKD7
H3BKF6
H3BKH2
H3BKJ1
H3BKJ3
H3BKJ9
H3BKL6
H3BKN2
H3BKN4
H3BKN5
H3BKP2
H3BKP6
H3BKQ0
H3BKT0
H3BKW1
H3BKY9
H3BKZ0
H3BKZ8
H3BL09
H3BL17
H3BL19
H3BL82
H3BL86
H3BL96
H3BLD4
H3BLE0
H3BLF8
H3BLH0
H3BLI2
H3BLI4
H3BLJ7
H3BLK6
H3BLK7
H3BLL7
H3BLM3
H3BLM8
H3BLN1
H3BLN2
H3BLP1
H3BLS0
H3BLS4
H7BWZ4
H7BX05
H7BX23
H7BX46
H7BX60
H7BX82
H8YHW6
H9H9R5
I0B502
I6L9J4
I7HJR1
I7HJS2
J3JS25
J3JS92
J3KMG3
J3KMG9
J3KMH5
J3KMM6
J3KMQ2
J3QK04
J3QK26
J3QK52
J3QM48
J3QMH1
J3QMK1
J3QMK6
J3QMM7
J3QMN4
J3QMQ8
J3QMT8
J3QN06
J3QN16
J3QN27
J3QN38
J3QNG0
J3QNM7
J3QNN8
J3QNR0
J3QNR8
J3QNT2
J3QNW9
J3QP61
J3QP81
J3QP84
J3QPL3
J3QPT4
J3QPU6
J3QPV2
J3QQ16
J3QQ55
J9JIB2
K3W4M4
K3W4P2
K3W4R5
K4DI59
K4DI67
K7N5T5
K7N5X7
K7N641
K7N645
K7N659
K7N6B1
K7N6K2
K7N6K7
K7N6K8
K7N6K9
K7N6S3
K9J725
L0N7N1
L7MTT3
L7MTU6
L7MTY4
L7MU51
L7MU53
L7MU54
L7MU59
L7N1W9
L7N1X6
L7N1Z8
L7N229
L7N245
L7N251
L7N257
L7N258
L7N264
L7N457
L7N463
L7N466
L7N477
M0QW64
M0QW74
M0QWA7
M0QWF1
M0QWF2
M0QWH9
M0QWJ6
M0QWR7
M0QWR8
M0QWU4
M1VPI1
M9MMJ7
M9MMK4
M9MMK5
O08528
O08529
O08530
O08538
O08539
O08542
O08543
O08545
O08547
O08550
O08553
O08573
O08575
O08579
O08580
O08581
O08586
O08599
O08601
O08608
O08609
O08663
O08665
O08675
O08677
O08691
O08705
O08712
O08715
O08717
O08734
O08738
O08739
O08740
O08747
O08749
O08755
O08785
O08786
O08788
O08790
O08795
O08796
O08808
O08810
O08811
O08832
O08842
O08849
O08852
O08856
O08858
O08908
O08911
O08912
O08914
O08966
O08967
O08992
O08997
O09000
O09005
O09008
O09009
O09010
O09037
O09039
O09043
O09044
O09047
O09049
O09053
O09061
O09100
O09101
O09106
O09110
O09111
O09114
O09116
O09118
O09126
O09127
O09131
O09158
O09164
O09172
O09173
O09174
O35066
O35074
O35082
O35084
O35089
O35099
O35103
O35111
O35114
O35118
O35130
O35134
O35144
O35153
O35166
O35173
O35174
O35182
O35185
O35188
O35206
O35216
O35218
O35226
O35228
O35235
O35242
O35250
O35253
O35256
O35257
O35258
O35261
O35280
O35286
O35305
O35308
O35310
O35316
O35326
O35350
O35367
O35372
O35375
O35379
O35381
O35382
O35386
O35393
O35400
O35405
O35409
O35423
O35424
O35427
O35435
O35445
O35450
O35453
O35454
O35457
O35464
O35468
O35469
O35473
O35484
O35488
O35490
O35516
O35526
O35544
O35565
O35566
O35593
O35594
O35598
O35599
O35600
O35601
O35607
O35608
O35615
O35618
O35621
O35622
O35623
O35625
O35627
O35632
O35633
O35638
O35643
O35654
O35655
O35657
O35659
O35664
O35678
O35680
O35683
O35685
O35696
O35701
O35704
O35714
O35716
O35717
O35718
O35719
O35728
O35730
O35732
O35737
O35740
O35852
O35855
O35864
O35874
O35892
O35900
O35903
O35904
O35930
O35936
O35942
O35943
O35945
O35949
O35954
O35955
O35963
O35969
O35972
O35973
O35988
O54689
O54692
O54693
O54707
O54709
O54714
O54724
O54732
O54749
O54750
O54782
O54784
O54786
O54788
O54790
O54791
O54794
O54799
O54804
O54818
O54819
O54824
O54828
O54829
O54830
O54831
O54832
O54833
O54834
O54851
O54864
O54885
O54890
O54897
O54907
O54908
O54909
O54910
O54915
O54916
O54918
O54927
O54940
O54941
O54943
O54946
O54949
O54950
O54956
O54957
O54962
O54983
O54984
O54991
O54992
O55013
O55017
O55026
O55028
O55029
O55033
O55038
O55057
O55071
O55095
O55102
O55111
O55123
O55128
O55137
O55142
O55143
O55186
O55187
O55188
O55192
O55201
O55222
O55229
O55230
O55233
O55234
O55236
O55237
O55239
O55240
O55241
O70126
O70138
O70145
O70152
O70157
O70161
O70172
O70174
O70176
O70194
O70201
O70230
O70250
O70251
O70252
O70283
O70291
O70293
O70302
O70310
O70311
O70318
O70325
O70342
O70343
O70370
O70372
O70394
O70421
O70422
O70423
O70435
O70443
O70445
O70451
O70456
O70460
O70469
O70475
O70477
O70480
O70494
O70496
O70497
O70503
O70514
O70546
O70548
O70566
O70571
O70572
O70576
O70577
O70578
O70579
O70582
O70583
O70589
O78196
O88174
O88186
O88188
O88199
O88207
O88273
O88319
O88322
O88325
O88335
O88343
O88346
O88410
O88413
O88427
O88428
O88444
O88451
O88454
O88455
O88456
O88472
O88485
O88487
O88502
O88507
O88508
O88509
O88512
O88513
O88522
O88533
O88536
O88537
O88543
O88544
O88545
O88559
O88566
O88569
O88574
O88575
O88576
O88587
O88593
O88597
O88602
O88621
O88622
O88623
O88627
O88630
O88634
O88653
O88665
O88673
O88685
O88693
O88700
O88703
O88704
O88705
O88708
O88712
O88713
O88721
O88736
O88783
O88786
O88792
O88811
O88816
O88822
O88829
O88839
O88843
O88844
O88845
O88848
O88854
O88855
O88870
O88876
O88879
O88890
O88895
O88898
O88904
O88907
O88909
O88932
O88947
O88951
O88952
O88958
O88968
O88990
O89001
O89016
O89017
O89033
O89079
O89084
O89090
O89093
O89094
O89096
O89100
O89101
O89109
O89110
O89116
P00158
P00184
P00186
P00329
P00342
P00375
P00493
P00520
P00687
P00688
P00755
P00756
P00757
P00848
P00860
P00920
P01027
P01029
P01101
P01108
P01132
P01139
P01193
P01216
P01325
P01326
P01572
P01575
P01580
P01582
P01587
P01590
P01633
P01723
P01731
P01783
P01837
P01843
P01844
P01845
P01872
P01882
P01887
P01895
P01896
P01897
P01898
P01899
P01900
P01901
P01902
P02340
P02463
P02468
P02469
P02716
P02802
P02816
P02831
P03888
P03893
P03899
P03911
P03921
P03925
P03930
P03953
P03958
P03991
P03995
P04071
P04095
P04104
P04184
P04186
P04187
P04202
P04223
P04235
P04351
P04401
P04426
P04441
P04444
P04627
P04768
P04769
P04919
P04925
P05017
P05063
P05064
P05125
P05132
P05201
P05202
P05208
P05480
P05532
P05627
P05784
P05977
P06151
P06240
P06281
P06332
P06339
P06537
P06684
P06728
P06745
P06797
P06798
P06804
P06837
P06869
P06880
P06909
P07146
P07147
P07214
P07309
P07310
P07351
P07356
P07607
P07628
P07724
P07742
P07744
P07901
P07903
P07934
P08030
P08032
P08071
P08113
P08121
P08122
P08152
P08207
P08226
P08228
P08249
P08505
P08551
P08680
P08730
P08752
P08775
P08882
P09022
P09026
P09027
P09055
P09056
P09103
P09174
P09225
P09235
P09240
P09411
P09470
P09528
P09535
P09542
P09581
P09586
P09671
P09803
P09813
P09920
P0C027
P0C028
P0C0A3
P0C0P8
P0C0S6
P0C191
P0C1Q2
P0C5I1
P0C605
P0C7A3
P0CG49
P0CG50
P0DI97
P0DMN7
P0DMR5
P0DMR6
P10085
P10107
P10146
P10168
P10284
P10287
P10300
P10417
P10493
P10518
P10598
P10601
P10605
P10628
P10630
P10637
P10639
P10648
P10711
P10749
P10761
P10810
P10833
P10852
P10853
P10854
P10889
P10922
P10923
P11087
P11152
P11157
P11214
P11276
P11344
P11352
P11403
P11416
P11440
P11499
P11531
P11627
P11672
P11679
P11680
P11688
P11714
P11725
P11798
P11862
P11881
P11911
P11928
P11942
P11983
P12023
P12025
P12032
P12265
P12382
P12388
P12657
P12790
P12813
P12849
P12850
P12960
P12968
P12979
P13011
P13020
P13405
P13412
P13439
P13504
P13516
P13541
P13542
P13562
P13595
P13597
P13634
P13707
P13745
P13864
P14094
P14106
P14131
P14142
P14152
P14206
P14211
P14231
P14234
P14246
P14404
P14426
P14427
P14428
P14429
P14430
P14431
P14432
P14434
P14483
P14576
P14602
P14685
P14719
P14733
P14824
P14847
P14869
P14901
P15037
P15089
P15105
P15116
P15208
P15247
P15261
P15306
P15314
P15327
P15375
P15388
P15409
P15530
P15532
P15533
P15535
P15655
P15656
P15702
P15806
P15919
P15920
P15945
P15946
P15947
P15948
P15949
P16015
P16043
P16054
P16092
P16125
P16254
P16277
P16283
P16294
P16297
P16301
P16305
P16331
P16332
P16388
P16390
P16406
P16460
P16546
P16675
P16858
P16872
P16879
P16882
P16951
P17095
P17156
P17182
P17183
P17208
P17426
P17427
P17439
P17515
P17532
P17553
P17679
P17710
P17751
P17809
P17879
P17918
P17919
P18052
P18155
P18181
P18293
P18337
P18340
P18572
P18581
P18608
P18653
P18654
P18761
P18762
P18826
P18828
P18872
P18911
P19001
P19091
P19096
P19123
P19137
P19157
P19221
P19253
P19324
P19426
P19467
P19785
P20060
P20067
P20108
P20109
P20152
P20181
P20239
P20263
P20334
P20443
P20491
P20612
P20664
P20782
P20801
P20826
P20863
P20917
P20918
P21180
P21183
P21237
P21274
P21278
P21279
P21300
P21447
P21550
P21552
P21570
P21614
P21658
P21661
P21729
P21761
P21765
P21784
P21836
P21855
P21958
P21995
P22005
P22272
P22361
P22366
P22387
P22389
P22437
P22605
P22646
P22682
P22723
P22724
P22725
P22726
P22727
P22752
P22892
P22907
P22935
P23116
P23188
P23198
P23204
P23242
P23275
P23299
P23440
P23578
P23589
P23591
P23611
P23708
P23738
P23772
P23780
P23798
P23804
P23818
P23906
P23927
P23950
P24063
P24161
P24270
P24288
P24369
P24383
P24456
P24457
P24527
P24529
P24547
P24549
P24610
P24668
P24699
P24721
P24788
P24807
P24815
P24823
P24860
P25085
P25118
P25119
P25206
P25318
P25322
P25425
P25446
P25799
P25911
P25916
P25918
P25962
P26011
P26039
P26040
P26048
P26049
P26149
P26150
P26151
P26231
P26262
P26361
P26369
P26443
P26450
P26516
P26645
P26883
P26952
P26954
P26955
P27005
P27038
P27040
P27046
P27048
P27090
P27467
P27512
P27545
P27548
P27577
P27600
P27601
P27641
P27656
P27659
P27661
P27664
P27671
P27681
P27773
P27782
P27784
P27786
P27808
P27870
P27889
P27931
P28028
P28033
P28047
P28063
P28229
P28293
P28301
P28322
P28334
P28352
P28474
P28481
P28571
P28649
P28650
P28652
P28653
P28654
P28660
P28700
P28704
P28705
P28740
P28741
P28776
P28843
P28862
P28867
P29037
P29121
P29341
P29351
P29352
P29387
P29391
P29416
P29452
P29477
P29533
P29594
P29595
P29752
P29754
P29755
P29758
P29788
P29812
P29974
P30204
P30275
P30276
P30282
P30285
P30306
P30355
P30416
P30548
P30549
P30558
P30658
P30677
P30678
P30681
P30728
P30730
P30731
P30873
P30875
P30882
P30935
P30966
P30987
P30993
P30999
P31001
P31041
P31245
P31266
P31324
P31428
P31648
P31649
P31650
P31695
P31725
P31750
P31809
P31938
P31955
P32020
P32037
P32082
P32211
P32240
P32261
P32299
P32300
P32304
P32507
P32883
P32972
P33033
P33146
P33174
P33175
P33215
P33242
P33267
P33434
P33435
P33534
P33587
P33609
P33610
P33611
P33622
P33766
P33896
P34057
P34152
P34884
P34902
P34914
P34927
P34928
P34960
P34968
P34971
P34984
P35123
P35173
P35174
P35175
P35230
P35235
P35278
P35279
P35282
P35283
P35293
P35330
P35343
P35347
P35363
P35374
P35375
P35377
P35378
P35396
P35419
P35428
P35436
P35438
P35454
P35455
P35456
P35486
P35492
P35505
P35546
P35550
P35561
P35564
P35569
P35583
P35584
P35585
P35700
P35762
P35821
P35822
P35831
P35846
P35917
P35918
P35951
P35979
P35980
P35991
P36363
P36369
P36371
P36423
P36552
P36895
P36898
P36993
P37040
P37237
P37242
P37889
P38060
P38532
P39038
P39053
P39054
P39061
P39087
P39098
P39428
P39429
P39447
P39654
P39655
P39688
P39689
P40142
P40223
P40224
P40240
P40336
P40630
P40645
P40646
P40935
P40936
P41047
P41105
P41155
P41160
P41216
P41230
P41233
P41241
P41245
P41251
P41272
P41274
P41317
P41438
P41539
P41588
P41593
P41778
P41969
P42082
P42125
P42128
P42208
P42225
P42227
P42230
P42232
P42337
P42567
P42586
P42703
P42866
P42867
P42932
P43006
P43021
P43081
P43117
P43136
P43247
P43252
P43346
P43352
P43404
P43406
P43407
P43431
P43432
P43488
P45376
P45377
P45448
P45481
P45700
P45952
P46061
P46096
P46412
P46414
P46425
P46460
P46467
P46656
P46662
P46664
P46737
P46935
P46938
P47212
P47713
P47738
P47739
P47740
P47743
P47746
P47750
P47754
P47757
P47774
P47791
P47806
P47809
P47810
P47811
P47856
P47857
P47873
P47876
P47877
P47878
P47879
P47880
P47911
P47915
P47934
P47936
P47937
P47941
P47962
P47963
P47968
P47993
P48025
P48026
P48030
P48168
P48193
P48281
P48299
P48301
P48302
P48316
P48318
P48320
P48346
P48410
P48453
P48540
P48543
P48545
P48614
P48615
P48754
P48756
P48757
P48760
P48774
P48776
P48787
P48962
P48964
P48967
P48972
P48999
P49025
P49117
P49135
P49138
P49182
P49282
P49312
P49429
P49442
P49443
P49452
P49582
P49586
P49615
P49650
P49681
P49698
P49717
P49722
P49764
P49766
P49769
P49772
P49813
P49817
P49935
P49962
P50096
P50114
P50149
P50153
P50171
P50172
P50228
P50247
P50284
P50285
P50396
P50404
P50428
P50431
P50446
P50516
P50518
P50544
P50571
P50592
P50608
P50636
P50652
P50752
P50992
P51141
P51150
P51162
P51163
P51175
P51432
P51436
P51448
P51450
P51491
P51576
P51612
P51637
P51642
P51655
P51656
P51658
P51660
P51661
P51667
P51670
P51675
P51676
P51678
P51680
P51682
P51683
P51791
P51829
P51830
P51855
P51863
P51865
P51885
P51906
P51908
P51942
P51943
P51944
P51945
P51949
P52019
P52187
P52293
P52332
P52431
P52432
P52479
P52480
P52482
P52483
P52503
P52592
P52624
P52633
P52734
P52785
P52787
P52793
P52795
P52800
P52801
P52825
P52843
P52850
P52912
P52927
P52946
P53347
P53349
P53351
P53368
P53395
P53566
P53612
P53668
P53690
P53762
P53798
P53810
P53986
P53994
P53995
P54071
P54103
P54130
P54265
P54276
P54285
P54320
P54369
P54615
P54726
P54728
P54751
P54754
P54761
P54763
P54775
P54818
P54822
P54823
P54841
P54869
P55065
P55066
P55086
P55095
P55096
P55097
P55099
P55104
P55200
P55258
P55264
P55271
P55284
P55288
P55292
P55850
P56135
P56198
P56212
P56371
P56382
P56383
P56384
P56386
P56389
P56395
P56399
P56400
P56402
P56450
P56469
P56475
P56476
P56477
P56479
P56480
P56481
P56484
P56485
P56542
P56564
P56567
P56581
P56593
P56677
P56726
P56931
P56942
P56959
P56960
P57080
P57680
P57716
P57746
P57748
P57774
P57784
P57785
P57787
P57791
P58006
P58019
P58043
P58058
P58064
P58069
P58137
P58158
P58252
P58281
P58307
P58308
P58321
P58355
P58390
P58391
P58406
P58681
P58682
P58735
P58742
P58771
P58774
P58801
P58854
P58871
P59053
P59110
P59158
P59178
P59235
P59240
P59267
P59270
P59325
P59528
P59529
P59530
P59532
P59598
P59644
P59648
P59708
P59729
P59941
P59999
P60007
P60041
P60060
P60122
P60229
P60330
P60334
P60335
P60469
P60521
P60605
P60670
P60710
P60764
P60766
P60840
P60843
P60867
P60879
P60898
P60904
P61014
P61022
P61025
P61027
P61079
P61080
P61082
P61087
P61089
P61092
P61148
P61161
P61164
P61168
P61202
P61205
P61211
P61216
P61219
P61222
P61255
P61264
P61290
P61327
P61329
P61358
P61406
P61407
P61458
P61514
P61620
P61750
P61793
P61809
P61922
P61924
P61953
P61957
P61965
P61967
P61979
P61982
P62082
P62137
P62141
P62192
P62196
P62204
P62242
P62245
P62254
P62257
P62259
P62264
P62270
P62274
P62281
P62301
P62305
P62307
P62309
P62311
P62313
P62315
P62317
P62320
P62322
P62331
P62334
P62482
P62488
P62492
P62509
P62627
P62702
P62715
P62717
P62737
P62743
P62746
P62754
P62806
P62812
P62814
P62821
P62827
P62830
P62835
P62838
P62843
P62852
P62855
P62858
P62869
P62874
P62876
P62878
P62880
P62881
P62889
P62897
P62908
P62911
P62915
P62918
P62932
P62947
P62956
P62960
P62962
P62965
P62983
P62984
P62996
P63001
P63005
P63011
P63015
P63017
P63024
P63034
P63040
P63044
P63046
P63058
P63073
P63075
P63078
P63080
P63082
P63085
P63087
P63094
P63101
P63115
P63137
P63139
P63141
P63143
P63147
P63154
P63163
P63166
P63213
P63216
P63239
P63242
P63250
P63260
P63268
P63271
P63280
P63318
P63321
P63325
P63328
P63330
P67778
P67871
P67984
P68040
P68181
P68254
P68368
P68369
P68372
P68404
P68433
P68510
P69744
P70120
P70126
P70160
P70168
P70170
P70172
P70174
P70175
P70181
P70182
P70188
P70193
P70195
P70196
P70205
P70206
P70207
P70208
P70211
P70225
P70227
P70232
P70236
P70245
P70263
P70266
P70268
P70275
P70277
P70280
P70281
P70284
P70288
P70296
P70297
P70302
P70303
P70310
P70313
P70315
P70318
P70326
P70333
P70335
P70339
P70340
P70353
P70362
P70365
P70371
P70372
P70375
P70377
P70378
P70380
P70385
P70404
P70408
P70419
P70423
P70424
P70428
P70429
P70434
P70444
P70451
P70452
P70453
P70458
P70460
P70661
P70671
P70677
P70691
P70694
P70695
P70696
P70697
P70698
P70699
P70700
P70701
P79621
P80313
P80314
P80315
P80316
P80318
P81122
P81269
P82343
P83741
P83861
P83870
P83877
P83887
P83940
P84078
P84091
P84096
P84099
P84104
P84228
P84244
P84309
P84444
P86044
P86546
P86547
P86792
P86793
P97288
P97290
P97291
P97292
P97295
P97297
P97304
P97310
P97311
P97313
P97318
P97325
P97326
P97329
P97333
P97347
P97348
P97350
P97351
P97355
P97357
P97358
P97363
P97369
P97370
P97371
P97372
P97377
P97378
P97390
P97414
P97427
P97431
P97438
P97440
P97441
P97445
P97450
P97452
P97454
P97457
P97460
P97463
P97464
P97465
P97466
P97470
P97471
P97473
P97477
P97479
P97480
P97481
P97489
P97490
P97493
P97494
P97496
P97501
P97504
P97718
P97742
P97751
P97760
P97766
P97767
P97772
P97784
P97785
P97794
P97797
P97798
P97801
P97807
P97813
P97819
P97821
P97823
P97861
P97864
P97868
P97926
P97927
P97929
P97930
P97946
P97952
P97953
P98063
P98064
P98086
P98156
P98191
P98192
P99024
P99025
P99026
P99027
P99028
P99029
Q00196
Q00322
Q00420
Q00422
Q00493
Q00519
Q00547
Q00560
Q00609
Q00612
Q00623
Q00724
Q00731
Q00780
Q00899
Q00915
Q00941
Q00993
Q01063
Q01065
Q01097
Q01098
Q01102
Q01114
Q01147
Q01149
Q01237
Q01279
Q01320
Q01337
Q01405
Q01705
Q01727
Q01768
Q01776
Q01815
Q01822
Q01853
Q02053
Q02105
Q02111
Q02152
Q02242
Q02248
Q02257
Q02284
Q02357
Q02384
Q02395
Q02566
Q02788
Q02853
Q02858
Q02956
Q03137
Q03141
Q03145
Q03147
Q03160
Q03173
Q03265
Q03311
Q03350
Q03385
Q03391
Q03526
Q03717
Q03719
Q04207
Q04211
Q04447
Q04519
Q04573
Q04592
Q04646
Q04683
Q04690
Q04736
Q04750
Q04857
Q04863
Q04887
Q04891
Q04997
Q04998
Q04999
Q05020
Q05117
Q05144
Q05306
Q05421
Q05738
Q05769
Q05793
Q05816
Q05895
Q05915
Q05921
Q05928
Q059U7
Q059V1
Q05BA5
Q05BH3
Q05BJ7
Q05CB6
Q05D16
Q05D44
Q06138
Q06180
Q06185
Q06186
Q06194
Q06219
Q06831
Q06890
Q06986
Q07079
Q07113
Q07139
Q07174
Q07235
Q07279
Q07417
Q07563
Q07763
Q07802
Q07813
Q07832
Q07968
Q08048
Q08122
Q08297
Q08369
Q08501
Q08535
Q08624
Q08639
Q08652
Q08761
Q08775
Q08857
Q08874
Q08879
Q08890
Q08943
Q08EB6
Q08EC7
Q09014
Q09143
Q09163
Q09199
Q09200
Q09324
Q09XV5
Q0HA38
Q0KK59
Q0KL02
Q0P543
Q0VAV1
Q0VB45
Q0VBD0
Q0VBD2
Q0VBH4
Q0VBI4
Q0VBK2
Q0VBK4
Q0VBL6
Q0VBN2
Q0VBU9
Q0VDU3
Q0VDY1
Q0VE82
Q0VEJ0
Q0VEV7
Q0VF55
Q0VF58
Q0VG15
Q0VGM9
Q0VGT2
Q0ZUP1
Q10738
Q11011
Q11204
Q148R4
Q148R9
Q149C2
Q149F3
Q149T1
Q14A28
Q14AJ9
Q14AK5
Q14AT5
Q14AX6
Q14AZ4
Q14BI1
Q14BI2
Q14BI7
Q14BT6
Q14C51
Q14CH1
Q14DH7
Q14DJ8
Q14DK4
Q17ST2
Q1A3B0
Q1AN90
Q1HL35
Q1RLK6
Q1RME4
Q1XH17
Q2HXL6
Q2LKU9
Q2MHE5
Q2MKA5
Q2TBA3
Q2TBE6
Q2TJ95
Q2TV84
Q2UY11
Q2VLH6
Q2VPQ9
Q2WF71
Q2XU92
Q30D77
Q31094
Q31099
Q31125
Q31621
Q32KI9
Q32LZ8
Q32M07
Q32MD9
Q32ME0
Q32ME9
Q32MW3
Q32NY6
Q32Q92
Q33DR2
Q33DR3
Q3B7Z2
Q3KNK3
Q3LS21
Q3MIA8
Q3SXA6
Q3SXF8
Q3SXG2
Q3SXH8
Q3SXJ3
Q3T9X0
Q3TA56
Q3TA68
Q3TAE8
Q3TAQ9
Q3TB05
Q3TBD2
Q3TBL6
Q3TBT3
Q3TBV4
Q3TBW2
Q3TC46
Q3TCH7
Q3TCU5
Q3TD35
Q3TD49
Q3TDX8
Q3TE27
Q3TE40
Q3TEQ8
Q3TEX6
Q3TF37
Q3TFD2
Q3TG86
Q3THE2
Q3THK3
Q3THK7
Q3THS6
Q3THW5
Q3TIR1
Q3TIX9
Q3TJD7
Q3TJM4
Q3TJN5
Q3TJW2
Q3TKR3
Q3TKT4
Q3TKY6
Q3TL26
Q3TL44
Q3TLR7
Q3TM63
Q3TMJ2
Q3TMP1
Q3TMU8
Q3TNA1
Q3TNB8
Q3TNW3
Q3TNX8
Q3TP92
Q3TPE1
Q3TPX4
Q3TQ39
Q3TQF0
Q3TQX1
Q3TQZ7
Q3TR20
Q3TRE6
Q3TRJ4
Q3TRM4
Q3TRM8
Q3TS87
Q3TSA9
Q3TTC2
Q3TTI9
Q3TTY5
Q3TUA9
Q3TV70
Q3TWL2
Q3TWM5
Q3TWW8
Q3TXS7
Q3TXU5
Q3TXV4
Q3TXX4
Q3TXZ6
Q3TYD4
Q3TYJ1
Q3TZT4
Q3TZX8
Q3TZZ7
Q3U0M1
Q3U0P1
Q3U0P4
Q3U0P5
Q3U0V1
Q3U0V2
Q3U109
Q3U141
Q3U1F9
Q3U1J0
Q3U1J1
Q3U1J4
Q3U1N2
Q3U1T9
Q3U1U4
Q3U1Y4
Q3U286
Q3U2J5
Q3U2K5
Q3U2P1
Q3U2X6
Q3U309
Q3U367
Q3U390
Q3U3J1
Q3U3M5
Q3U3Q1
Q3U3R4
Q3U3S3
Q3U3S6
Q3U436
Q3U4B4
Q3U4C5
Q3U4P5
Q3U4S0
Q3U4X8
Q3U564
Q3U5A2
Q3U5C7
Q3U5C8
Q3U5F6
Q3U5H1
Q3U5J2
Q3U6Q4
Q3U7K7
Q3U7M5
Q3U7R1
Q3U7U3
Q3U821
Q3U8K7
Q3U8S1
Q3U8Y1
Q3U962
Q3U9D6
Q3UA16
Q3UC82
Q3UCQ1
Q3UCV8
Q3UDF0
Q3UE37
Q3UEB3
Q3UEG6
Q3UEI1
Q3UEQ1
Q3UES3
Q3UEW6
Q3UFB7
Q3UFC6
Q3UFD7
Q3UFP5
Q3UFY7
Q3UG20
Q3UGC7
Q3UGF1
Q3UGX2
Q3UGX8
Q3UH93
Q3UHC1
Q3UHC7
Q3UHE1
Q3UHJ0
Q3UHN9
Q3UHZ7
Q3UI43
Q3UIA2
Q3UIK0
Q3UIK4
Q3UIR3
Q3UIU2
Q3UIX4
Q3UJ81
Q3UJB0
Q3UJD6
Q3UJF0
Q3UK10
Q3UKC1
Q3UKK2
Q3UKP4
Q3UKR0
Q3UKU1
Q3UKV0
Q3UKX5
Q3ULA2
Q3ULD5
Q3ULJ0
Q3ULJ3
Q3ULL6
Q3ULQ2
Q3UM33
Q3UM65
Q3UMA3
Q3UMR0
Q3UMW7
Q3UN02
Q3UN04
Q3UN27
Q3UNC9
Q3UND0
Q3UNV2
Q3UNV4
Q3UNX5
Q3UP87
Q3UPE3
Q3UPL0
Q3UPP8
Q3UPQ4
Q3UPW3
Q3UPZ0
Q3UQ44
Q3UQE8
Q3UQN2
Q3UQP0
Q3UQP1
Q3UQZ7
Q3UR32
Q3UR39
Q3UR42
Q3URE1
Q3URE6
Q3URN6
Q3URQ0
Q3URR0
Q3US41
Q3USF0
Q3USG4
Q3USK5
Q3UT66
Q3UTC4
Q3UTH8
Q3UTR7
Q3UU43
Q3UU56
Q3UUA6
Q3UUI3
Q3UUJ4
Q3UUQ7
Q3UUV9
Q3UV08
Q3UV11
Q3UV17
Q3UV55
Q3UV70
Q3UV74
Q3UV88
Q3UVD5
Q3UVL4
Q3UVR3
Q3UVX5
Q3UW12
Q3UW96
Q3UW98
Q3UWE6
Q3UWM4
Q3UWS5
Q3UXL1
Q3UXZ9
Q3UY93
Q3UYH7
Q3UYI1
Q3UYI6
Q3UYV9
Q3UYX7
Q3UZ01
Q3UZ18
Q3UZ64
Q3UZY0
Q3V0C5
Q3V0T4
Q3V113
Q3V116
Q3V124
Q3V1D3
Q3V1F1
Q3V1L4
Q3V1Q3
Q3V1T4
Q3V2K7
Q3V2Q3
Q3V300
Q3V3I2
Q3V3N7
Q3V3R1
Q3V3R4
Q3ZAQ4
Q3ZAS0
Q45HK4
Q45VK7
Q497I4
Q497J0
Q497L8
Q497R5
Q497W1
Q497W2
Q497Z0
Q49B93
Q4FE56
Q4FK66
Q4FZD4
Q4FZF3
Q4FZL6
Q4FZL9
Q4G0F8
Q4KL31
Q4KL65
Q4KL66
Q4KWH5
Q4LDD4
Q4LDF6
Q4LDG0
Q4U2R1
Q4VA53
Q4VA93
Q4VBE8
Q4VK74
Q4ZGD8
Q504M2
Q505B8
Q505D1
Q505F1
Q50L41
Q50L42
Q50L43
Q52KB6
Q52KC3
Q52KG5
Q53Z09
Q542I8
Q542V3
Q543K9
Q543M9
Q543V3
Q544X6
Q564G0
Q569L8
Q569Z5
Q569Z6
Q56A08
Q571C7
Q571F8
Q571G4
Q571K4
Q58A65
Q58NB6
Q59J78
Q5BJ29
Q5BKP2
Q5D0E0
Q5D0F1
Q5DTI8
Q5DTK1
Q5DTL9
Q5DU02
Q5DW34
Q5EE38
Q5EG47
Q5ERJ2
Q5F2A3
Q5F2A4
Q5F2B1
Q5F2E8
Q5F4S8
Q5F4S9
Q5F4T0
Q5FWH2
Q5FWI2
Q5FWK3
Q5GFD5
Q5H8A1
Q5HZG4
Q5HZJ0
Q5I043
Q5I1X5
Q5I7S8
Q5IXF8
Q5JCS9
Q5JCT0
Q5KTC0
Q5M956
Q5M9N4
Q5MPP0
Q5NC44
Q5NCC8
Q5NCD0
Q5NCD2
Q5NCD3
Q5NCD6
Q5NCD7
Q5NCE8
Q5NCF2
Q5NCH9
Q5NCP0
Q5NCQ5
Q5NCY0
Q5ND28
Q5ND29
Q5PR72
Q5QNQ9
Q5RIM6
Q5RIN0
Q5RJH3
Q5RJH6
Q5RJI2
Q5RKN9
Q5RKZ7
Q5RL10
Q5RL20
Q5S006
Q5SDA5
Q5SPW0
Q5SQK1
Q5SQX6
Q5SRY7
Q5SSI6
Q5SSL4
Q5SSM0
Q5SSM3
Q5SSP0
Q5SSW2
Q5SSZ5
Q5SSZ7
Q5SUH6
Q5SUH7
Q5SUR0
Q5SUS0
Q5SV02
Q5SV41
Q5SVF8
Q5SVF9
Q5SVL6
Q5SVL8
Q5SVL9
Q5SVM0
Q5SVM1
Q5SVQ0
Q5SW28
Q5SW45
Q5SW48
Q5SW49
Q5SW50
Q5SWU9
Q5SWW4
Q5SWY8
Q5SWZ9
Q5SX19
Q5SX39
Q5SXA9
Q5SXJ3
Q5SY42
Q5SZ92
Q5SZ93
Q5SZ99
Q5SZV5
Q5SZY7
Q5U452
Q5U467
Q5U4B1
Q5U4C9
Q5U4D8
Q5U4D9
Q5U5I3
Q5U5M8
Q5U5V2
Q5UE59
Q5UKY4
Q5XG67
Q5XJE5
Q5XJV5
Q5XJY5
Q5XKE0
Q5XPI3
Q5XPT3
Q5Y5T5
Q5YD48
Q60520
Q60591
Q60596
Q60597
Q60598
Q60603
Q60605
Q60611
Q60612
Q60613
Q60614
Q60625
Q60629
Q60631
Q60634
Q60641
Q60644
Q60648
Q60651
Q60665
Q60668
Q60674
Q60675
Q60676
Q60677
Q60687
Q60692
Q60715
Q60716
Q60718
Q60737
Q60738
Q60739
Q60749
Q60750
Q60753
Q60754
Q60755
Q60759
Q60760
Q60769
Q60770
Q60772
Q60773
Q60778
Q60779
Q60787
Q60790
Q60793
Q60803
Q60805
Q60809
Q60819
Q60823
Q60829
Q60837
Q60838
Q60841
Q60846
Q60847
Q60855
Q60857
Q60860
Q60862
Q60864
Q60867
Q60875
Q60876
Q60879
Q60882
Q60886
Q60890
Q60892
Q60899
Q60902
Q60925
Q60928
Q60929
Q60932
Q60943
Q60949
Q60952
Q60953
Q60954
Q60960
Q60963
Q60967
Q60972
Q60973
Q60974
Q60991
Q60992
Q60994
Q60996
Q60I23
Q61001
Q61009
Q61010
Q61011
Q61012
Q61016
Q61017
Q61024
Q61025
Q61026
Q61036
Q61041
Q61048
Q61062
Q61066
Q61068
Q61081
Q61084
Q61085
Q61086
Q61087
Q61088
Q61089
Q61090
Q61092
Q61093
Q61097
Q61098
Q61102
Q61115
Q61117
Q61120
Q61125
Q61129
Q61133
Q61139
Q61140
Q61143
Q61144
Q61147
Q61151
Q61152
Q61160
Q61165
Q61166
Q61169
Q61171
Q61176
Q61179
Q61183
Q61184
Q61187
Q61188
Q61191
Q61205
Q61206
Q61207
Q61210
Q61214
Q61216
Q61221
Q61224
Q61239
Q61245
Q61247
Q61268
Q61271
Q61292
Q61301
Q61312
Q61313
Q61327
Q61335
Q61337
Q61361
Q61371
Q61391
Q61398
Q61405
Q61409
Q61411
Q61418
Q61420
Q61423
Q61425
Q61456
Q61457
Q61458
Q61462
Q61466
Q61469
Q61473
Q61475
Q61483
Q61493
Q61495
Q61496
Q61501
Q61502
Q61503
Q61510
Q61521
Q61526
Q61527
Q61532
Q61539
Q61542
Q61543
Q61550
Q61554
Q61555
Q61563
Q61578
Q61586
Q61592
Q61598
Q61599
Q61602
Q61606
Q61609
Q61614
Q61616
Q61626
Q61646
Q61666
Q61672
Q61686
Q61694
Q61696
Q61699
Q61711
Q61716
Q61718
Q61730
Q61733
Q61735
Q61739
Q61743
Q61749
Q61753
Q61754
Q61759
Q61762
Q61765
Q61767
Q61768
Q61771
Q61772
Q61781
Q61789
Q61805
Q61820
Q61824
Q61827
Q61835
Q61839
Q61879
Q61880
Q61881
Q61897
Q61907
Q61923
Q61937
Q61955
Q61982
Q61983
Q61990
Q62000
Q62005
Q62007
Q62010
Q62011
Q62018
Q62028
Q62030
Q62035
Q62036
Q62048
Q62052
Q62053
Q62056
Q62073
Q62074
Q62077
Q62082
Q62093
Q62101
Q62108
Q62120
Q62137
Q62141
Q62148
Q62151
Q62159
Q62160
Q62165
Q62172
Q62178
Q62187
Q62188
Q62189
Q62192
Q62193
Q62209
Q62210
Q62225
Q62226
Q62227
Q62240
Q62241
Q62245
Q62261
Q62264
Q62266
Q62273
Q62276
Q62283
Q62311
Q62312
Q62313
Q62315
Q62318
Q62348
Q62351
Q62356
Q62361
Q62376
Q62383
Q62386
Q62388
Q62392
Q62393
Q62398
Q62406
Q62415
Q62418
Q62420
Q62432
Q62440
Q62441
Q62447
Q62463
Q62469
Q62470
Q62559
Q63844
Q63850
Q63870
Q63871
Q63886
Q63932
Q63934
Q63953
Q63ZV0
Q63ZW6
Q63ZW7
Q64010
Q64018
Q640M1
Q640M6
Q640N2
Q640Q5
Q64104
Q64133
Q64143
Q64163
Q641K5
Q64213
Q64249
Q64261
Q64264
Q64267
Q64280
Q64287
Q642K5
Q64310
Q64314
Q64323
Q64326
Q64337
Q64338
Q64339
Q64343
Q64347
Q64373
Q64385
Q64387
Q64429
Q64430
Q64434
Q64437
Q64441
Q64442
Q64444
Q64446
Q64459
Q64462
Q64464
Q64475
Q64478
Q64481
Q64487
Q64505
Q64511
Q64514
Q64516
Q64518
Q64519
Q64522
Q64523
Q64524
Q64525
Q64527
Q64669
Q64674
Q64676
Q64685
Q64687
Q64689
Q64692
Q64695
Q64700
Q64701
Q64702
Q64704
Q64707
Q64726
Q64727
Q64729
Q64735
Q64737
Q64739
Q64GA5
Q65Z40
Q66GT5
Q66JQ7
Q66JS6
Q66JT7
Q66JV6
Q66JX5
Q66T02
Q66X19
Q672J9
Q673U1
Q673W2
Q673W4
Q67BT3
Q67E05
Q67FY2
Q68ED2
Q68FD5
Q68FF6
Q68FG1
Q68FG2
Q68FH0
Q68FL0
Q68FL4
Q68FM7
Q68SA9
Q69Z66
Q69Z69
Q69ZA1
Q69ZF3
Q69ZF8
Q69ZH9
Q69ZJ7
Q69ZK0
Q69ZK6
Q69ZK9
Q69ZQ2
Q69ZS7
Q69ZS8
Q69ZT1
Q6A068
Q6A099
Q6AZB0
Q6DFV1
Q6DFW4
Q6DFZ1
Q6DIA9
Q6DID7
Q6DR98
Q6DR99
Q6DTY7
Q6E1M8
Q6EAL8
Q6EDY6
Q6F5F2
Q6GQT0
Q6GQT1
Q6GQT6
Q6GSS7
Q6GT24
Q6GTI0
Q6GTL7
Q6GTR6
Q6GTW1
Q6GU14
Q6GV12
Q6IE28
Q6IFT4
Q6IFX3
Q6IFX4
Q6IFZ6
Q6IFZ8
Q6IFZ9
Q6IME9
Q6IMF0
Q6IMK7
Q6IMP4
Q6IQX7
Q6IQY5
Q6IQY6
Q6IR34
Q6IRU2
Q6IRU5
Q6IRU7
Q6IYF8
Q6JPI3
Q6KAR6
Q6KCD5
Q6NS46
Q6NS52
Q6NS60
Q6NS65
Q6NSV5
Q6NTA4
Q6NV83
Q6NV99
Q6NVF0
Q6NVF2
Q6NVG1
Q6NVG7
Q6NWV3
Q6NWW5
Q6NXH9
Q6NXI6
Q6NXK8
Q6NXK9
Q6NXL1
Q6NXL6
Q6NXW6
Q6NXY9
Q6NZA9
Q6NZB0
Q6NZB1
Q6NZF1
Q6NZH9
Q6NZJ6
Q6NZL1
Q6NZN1
Q6NZQ4
Q6NZR5
Q6P069
Q6P1C1
Q6P1D7
Q6P1F6
Q6P1G2
Q6P1H6
Q6P1H7
Q6P1Y8
Q6P290
Q6P2L6
Q6P3A8
Q6P4T2
Q6P542
Q6P549
Q6P571
Q6P5D4
Q6P5E4
Q6P5E8
Q6P5F7
Q6P5F9
Q6P5G0
Q6P6I8
Q6P6L5
Q6P6L6
Q6P6P5
Q6P7T9
Q6P8H8
Q6P8J7
Q6P8N9
Q6P8P8
Q6P8U6
Q6P9J9
Q6P9K9
Q6P9L6
Q6P9P6
Q6P9R4
Q6P9S7
Q6P9Z1
Q6PAC3
Q6PAJ1
Q6PAL8
Q6PAM0
Q6PAM1
Q6PAQ8
Q6PAR5
Q6PB70
Q6PB82
Q6PB93
Q6PB97
Q6PCM1
Q6PCM2
Q6PCQ0
Q6PD03
Q6PD10
Q6PD21
Q6PD26
Q6PD28
Q6PDF2
Q6PDG5
Q6PDK2
Q6PDK8
Q6PDL0
Q6PDM1
Q6PDM2
Q6PDQ2
Q6PDZ2
Q6PE01
Q6PE70
Q6PE84
Q6PEE3
Q6PEM8
Q6PEV3
Q6PF93
Q6PFA2
Q6PFD5
Q6PFQ7
Q6PFX6
Q6PFX9
Q6PFY9
Q6PGE7
Q6PGF3
Q6PGF5
Q6PGF7
Q6PGG2
Q6PGH1
Q6PGJ3
Q6PHA1
Q6PHB0
Q6PHN9
Q6PHS9
Q6PHU5
Q6PHZ2
Q6PHZ8
Q6PI17
Q6PI63
Q6PIC6
Q6PIE5
Q6PIG8
Q6PIJ4
Q6PR54
Q6PRU9
Q6Q2Z6
Q6Q477
Q6Q783
Q6Q899
Q6QD59
Q6QI06
Q6QLQ4
Q6R0H6
Q6R0H7
Q6R6I7
Q6RHW0
Q6RKD8
Q6S9I0
Q6S9I2
Q6S9I3
Q6SKR2
Q6T264
Q6T707
Q6TCG8
Q6UJY2
Q6URW6
Q6VH22
Q6VMN6
Q6VV64
Q6VVW5
Q6VVW9
Q6W5C0
Q6WBX7
Q6WIZ7
Q6WKZ7
Q6WKZ8
Q6WQJ1
Q6X1Y6
Q6X893
Q6XJV4
Q6XJV6
Q6XK23
Q6XZL8
Q6Y4S4
Q6Y5D8
Q6YCH2
Q6YGZ1
Q6ZPE2
Q6ZPF3
Q6ZPI0
Q6ZPQ6
Q6ZPR5
Q6ZPV2
Q6ZPY2
Q6ZQ06
Q6ZQ08
Q6ZQ11
Q6ZQ12
Q6ZQ82
Q6ZQ88
Q6ZQ89
Q6ZQ93
Q6ZQB6
Q6ZQF0
Q6ZQH8
Q6ZQI3
Q6ZQJ5
Q6ZQL4
Q6ZQM0
Q6ZWM4
Q6ZWN5
Q6ZWQ0
Q6ZWQ7
Q6ZWQ9
Q6ZWR6
Q6ZWS4
Q6ZWS8
Q6ZWU9
Q6ZWV7
Q6ZWX6
Q6ZWY9
Q6ZWZ2
Q6ZWZ4
Q6ZWZ6
Q704Y3
Q711T7
Q717B2
Q717B4
Q71FD5
Q71FD7
Q71KT5
Q71M36
Q71MR7
Q75N73
Q75UR0
Q765I1
Q769J6
Q76EC5
Q76JU9
Q76K27
Q76KF0
Q76KJ5
Q76MZ3
Q76N33
Q78IQ7
Q78IS1
Q78J03
Q78JE5
Q78JT3
Q78WZ7
Q78XR0
Q78Y72
Q78Y73
Q78YZ6
Q78ZM0
Q791N7
Q792F9
Q792Y8
Q792Y9
Q792Z0
Q792Z1
Q7M6Y3
Q7M707
Q7M708
Q7M709
Q7M710
Q7M711
Q7M712
Q7M713
Q7M715
Q7M718
Q7M719
Q7M720
Q7M721
Q7M722
Q7M723
Q7M724
Q7M725
Q7M760
Q7TMA4
Q7TMB3
Q7TMB8
Q7TMC8
Q7TMD7
Q7TMF3
Q7TMN8
Q7TMR0
Q7TMS5
Q7TMY4
Q7TMY7
Q7TMY8
Q7TN02
Q7TN05
Q7TN16
Q7TN37
Q7TNC8
Q7TNC9
Q7TNF4
Q7TNF8
Q7TNH6
Q7TNI3
Q7TNI7
Q7TNK8
Q7TNL7
Q7TNP2
Q7TNR9
Q7TNS7
Q7TNT2
Q7TNV0
Q7TNV9
Q7TPD0
Q7TPL9
Q7TPR4
Q7TPS5
Q7TPV4
Q7TQA3
Q7TQA4
Q7TQA5
Q7TQA6
Q7TQB8
Q7TQF2
Q7TQF7
Q7TQI3
Q7TQK0
Q7TQK4
Q7TQP3
Q7TQP4
Q7TQQ0
Q7TQQ2
Q7TQQ3
Q7TQQ4
Q7TQQ5
Q7TQR2
Q7TQR3
Q7TQR7
Q7TQR9
Q7TQS1
Q7TQS4
Q7TQT8
Q7TQU7
Q7TQU8
Q7TQU9
Q7TQW9
Q7TQZ2
Q7TQZ3
Q7TQZ6
Q7TQZ9
Q7TR01
Q7TR02
Q7TR04
Q7TR05
Q7TR08
Q7TR09
Q7TR28
Q7TR29
Q7TR34
Q7TR38
Q7TR39
Q7TR40
Q7TR42
Q7TR45
Q7TR48
Q7TR55
Q7TR59
Q7TR63
Q7TR64
Q7TR67
Q7TR70
Q7TR71
Q7TR72
Q7TR74
Q7TR75
Q7TR76
Q7TR79
Q7TR80
Q7TR85
Q7TR87
Q7TR89
Q7TR95
Q7TR96
Q7TRB7
Q7TRB8
Q7TRE4
Q7TRE5
Q7TRE6
Q7TRF3
Q7TRG0
Q7TRG2
Q7TRG4
Q7TRG7
Q7TRG8
Q7TRG9
Q7TRH3
Q7TRH4
Q7TRH5
Q7TRH6
Q7TRH7
Q7TRI0
Q7TRI2
Q7TRI6
Q7TRK1
Q7TRL3
Q7TRL9
Q7TRM4
Q7TRM6
Q7TRM9
Q7TRN0
Q7TRN3
Q7TRN4
Q7TRN5
Q7TRN7
Q7TRN8
Q7TRN9
Q7TRP1
Q7TRP2
Q7TRP4
Q7TRP5
Q7TRP7
Q7TRQ2
Q7TRQ3
Q7TRS0
Q7TRS2
Q7TRS5
Q7TRU3
Q7TRU4
Q7TRU5
Q7TRU6
Q7TRU7
Q7TRU8
Q7TRU9
Q7TRV7
Q7TRV8
Q7TRW1
Q7TRW7
Q7TRX1
Q7TRX2
Q7TRX4
Q7TRX7
Q7TRX8
Q7TRX9
Q7TRZ4
Q7TRZ7
Q7TS01
Q7TS02
Q7TS03
Q7TS04
Q7TS05
Q7TS06
Q7TS07
Q7TS08
Q7TS10
Q7TS18
Q7TS19
Q7TS30
Q7TS38
Q7TS40
Q7TS43
Q7TS51
Q7TS52
Q7TS53
Q7TS55
Q7TS72
Q7TS75
Q7TS91
Q7TSA3
Q7TSF0
Q7TSF1
Q7TSG2
Q7TSG3
Q7TSH2
Q7TSH4
Q7TSI3
Q7TSI8
Q7TSJ6
Q7TSK9
Q7TSQ8
Q7TSU7
Q7TSV4
Q7TSY8
Q7TT16
Q7TT18
Q7TT21
Q7TT35
Q7TT79
Q80SS5
Q80SS6
Q80SU4
Q80SU6
Q80SW1
Q80SY3
Q80SY6
Q80SZ6
Q80SZ7
Q80T06
Q80T21
Q80T41
Q80TA1
Q80TG1
Q80TG9
Q80TH2
Q80TJ7
Q80TQ2
Q80TY0
Q80TZ3
Q80U35
Q80U44
Q80U63
Q80U70
Q80U72
Q80U78
Q80U87
Q80U93
Q80UE6
Q80UF4
Q80UF7
Q80UG2
Q80UJ7
Q80UK8
Q80UL9
Q80UP3
Q80UP8
Q80UV9
Q80UW0
Q80UW2
Q80UW8
Q80UY1
Q80V53
Q80V62
Q80V72
Q80V76
Q80V85
Q80V86
Q80V88
Q80V94
Q80VA0
Q80VK8
Q80VL1
Q80VP1
Q80VQ0
Q80VR2
Q80VU4
Q80VX2
Q80W21
Q80W37
Q80W41
Q80W47
Q80W65
Q80W68
Q80W71
Q80W80
Q80W82
Q80W94
Q80W99
Q80WD6
Q80WG7
Q80WM9
Q80WQ2
Q80WQ8
Q80WT4
Q80WV3
Q80X19
Q80X37
Q80X41
Q80X56
Q80X68
Q80X81
Q80X85
Q80X90
Q80X95
Q80X98
Q80XC3
Q80XD1
Q80XF5
Q80XG9
Q80XI4
Q80XI6
Q80XJ2
Q80XK2
Q80XM3
Q80XN0
Q80XP9
Q80XR2
Q80XU8
Q80XZ4
Q80Y19
Q80Y56
Q80Y84
Q80Y98
Q80YC5
Q80YE7
Q80YF9
Q80YQ1
Q80YQ2
Q80YR6
Q80YR7
Q80YW0
Q80YX1
Q80Z38
Q80Z68
Q80ZH7
Q80ZJ2
Q80ZM7
Q80ZM8
Q80ZS3
Q80ZX0
Q810A7
Q810E8
Q810G1
Q810G2
Q810G3
Q810G5
Q810G6
Q810I0
Q810J1
Q810K3
Q810N3
Q810U3
Q810U4
Q810V0
Q810W6
Q811D0
Q811G0
Q811M1
Q811P8
Q811Q3
Q811Q9
Q811U4
Q811W2
Q812A5
Q812C9
Q8BFP9
Q8BFQ3
Q8BFR4
Q8BFT2
Q8BFU0
Q8BFU2
Q8BFU7
Q8BFU8
Q8BFV3
Q8BFW9
Q8BFY9
Q8BFZ6
Q8BFZ9
Q8BG05
Q8BG07
Q8BG16
Q8BG21
Q8BG22
Q8BG28
Q8BG30
Q8BG32
Q8BG37
Q8BG41
Q8BG51
Q8BG54
Q8BG60
Q8BG81
Q8BG92
Q8BG93
Q8BG95
Q8BGA3
Q8BGA5
Q8BGB7
Q8BGD9
Q8BGE5
Q8BGE9
Q8BGF7
Q8BGG0
Q8BGI4
Q8BGJ5
Q8BGJ9
Q8BGK0
Q8BGK6
Q8BGL3
Q8BGM7
Q8BGQ4
Q8BGR3
Q8BGS1
Q8BGS7
Q8BGT0
Q8BGT1
Q8BGT5
Q8BGT7
Q8BGT9
Q8BGU0
Q8BGW5
Q8BGX7
Q8BGY2
Q8BGY6
Q8BGY9
Q8BGZ6
Q8BGZ7
Q8BH00
Q8BH06
Q8BH15
Q8BH35
Q8BH43
Q8BH57
Q8BH59
Q8BH60
Q8BH61
Q8BH64
Q8BH65
Q8BH70
Q8BH74
Q8BH75
Q8BH76
Q8BH79
Q8BH80
Q8BH88
Q8BH95
Q8BH98
Q8BHB0
Q8BHB4
Q8BHC0
Q8BHD0
Q8BHD2
Q8BHE1
Q8BHI7
Q8BHJ5
Q8BHJ6
Q8BHJ7
Q8BHJ9
Q8BHK1
Q8BHK3
Q8BHK9
Q8BHL5
Q8BHL6
Q8BHL8
Q8BHN0
Q8BHN3
Q8BHS3
Q8BHT6
Q8BHT7
Q8BHX1
Q8BHX3
Q8BHX6
Q8BHY2
Q8BHY3
Q8BI38
Q8BI57
Q8BI58
Q8BI67
Q8BIA4
Q8BIB2
Q8BID8
Q8BIJ7
Q8BIQ5
Q8BJ03
Q8BJ42
Q8BJ56
Q8BJ64
Q8BJ71
Q8BJ73
Q8BJA2
Q8BJF9
Q8BJL1
Q8BJM5
Q8BJQ2
Q8BJQ4
Q8BJQ9
Q8BJS4
Q8BJT9
Q8BJU9
Q8BJW5
Q8BJW7
Q8BJY1
Q8BK06
Q8BK30
Q8BK32
Q8BK63
Q8BK67
Q8BK72
Q8BKC8
Q8BKD6
Q8BKE9
Q8BKF1
Q8BKH7
Q8BKI2
Q8BKN5
Q8BKN6
Q8BKT3
Q8BKT8
Q8BKV0
Q8BKV1
Q8BKX1
Q8BKX6
Q8BKZ9
Q8BL07
Q8BL66
Q8BL74
Q8BL80
Q8BL97
Q8BLA8
Q8BLB5
Q8BLD9
Q8BLF1
Q8BLF6
Q8BLG0
Q8BLG2
Q8BLI0
Q8BLI4
Q8BLN5
Q8BLR7
Q8BLR9
Q8BLU0
Q8BLV3
Q8BLX4
Q8BLX7
Q8BLY3
Q8BM14
Q8BM54
Q8BM75
Q8BM89
Q8BM92
Q8BMA6
Q8BMB3
Q8BMC0
Q8BMC1
Q8BMC3
Q8BMD2
Q8BMF4
Q8BMF5
Q8BMG0
Q8BMG1
Q8BMG8
Q8BMI3
Q8BMI4
Q8BMJ3
Q8BMK4
Q8BMN3
Q8BMP4
Q8BMQ2
Q8BMS1
Q8BMT9
Q8BN51
Q8BN58
Q8BN82
Q8BND3
Q8BNI4
Q8BNJ3
Q8BP00
Q8BP48
Q8BP67
Q8BP71
Q8BP86
Q8BPB0
Q8BPB5
Q8BPG6
Q8BPM0
Q8BPN4
Q8BPU7
Q8BPX9
Q8BPZ8
Q8BQ10
Q8BQ86
Q8BQD1
Q8BQR4
Q8BQR8
Q8BQS5
Q8BQV2
Q8BQY8
Q8BQZ4
Q8BQZ5
Q8BQZ8
Q8BR07
Q8BR37
Q8BR65
Q8BR70
Q8BR86
Q8BRB0
Q8BRB1
Q8BRB7
Q8BRF7
Q8BRH3
Q8BRH4
Q8BRK8
Q8BRK9
Q8BRR9
Q8BRU6
Q8BRY4
Q8BS25
Q8BS35
Q8BS40
Q8BS45
Q8BS90
Q8BS97
Q8BSK8
Q8BSL4
Q8BSM7
Q8BSP2
Q8BSQ9
Q8BSU2
Q8BSY0
Q8BT14
Q8BT20
Q8BT60
Q8BTF7
Q8BTI8
Q8BTI9
Q8BTM8
Q8BTM9
Q8BTS0
Q8BTS4
Q8BTV1
Q8BTV2
Q8BTW3
Q8BTY1
Q8BTZ4
Q8BU03
Q8BU14
Q8BU40
Q8BU88
Q8BUB6
Q8BUD0
Q8BUE1
Q8BUE7
Q8BUG8
Q8BUL6
Q8BUM9
Q8BUN5
Q8BUN9
Q8BUR4
Q8BUV3
Q8BUV6
Q8BUW1
Q8BUX5
Q8BUY5
Q8BV13
Q8BVD2
Q8BVE3
Q8BVE8
Q8BVF7
Q8BVG5
Q8BVI4
Q8BVI5
Q8BVJ9
Q8BVM4
Q8BVN3
Q8BVN9
Q8BVP2
Q8BVP5
Q8BVQ9
Q8BVU5
Q8BVZ5
Q8BW41
Q8BW45
Q8BW72
Q8BW75
Q8BWA8
Q8BWC0
Q8BWD2
Q8BWF0
Q8BWG8
Q8BWJ3
Q8BWM3
Q8BWN8
Q8BWP8
Q8BWR8
Q8BWT1
Q8BWU8
Q8BWW9
Q8BWY3
Q8BX09
Q8BX17
Q8BX24
Q8BX32
Q8BX35
Q8BX80
Q8BXA1
Q8BXA7
Q8BXG3
Q8BXL7
Q8BXN7
Q8BXQ2
Q8BY35
Q8BY71
Q8BY87
Q8BY89
Q8BYB9
Q8BYC4
Q8BYF6
Q8BYG9
Q8BYH8
Q8BYI6
Q8BYI9
Q8BYJ6
Q8BYK4
Q8BYM5
Q8BYN3
Q8BYP3
Q8BYR2
Q8BYR8
Q8BYW1
Q8BZ00
Q8BZ03
Q8BZ09
Q8BZ33
Q8BZ36
Q8BZ39
Q8BZ60
Q8BZ64
Q8BZ81
Q8BZ82
Q8BZ98
Q8BZA9
Q8BZB2
Q8BZL1
Q8BZM0
Q8BZN2
Q8BZP8
Q8BZQ7
Q8BZZ3
Q8C025
Q8C048
Q8C050
Q8C067
Q8C0D4
Q8C0D7
Q8C0J2
Q8C0K5
Q8C0L6
Q8C0L8
Q8C0L9
Q8C0M2
Q8C0M9
Q8C0N1
Q8C0N2
Q8C0P0
Q8C0R0
Q8C0T9
Q8C0Y1
Q8C102
Q8C129
Q8C142
Q8C145
Q8C147
Q8C156
Q8C166
Q8C170
Q8C172
Q8C180
Q8C196
Q8C1D8
Q8C1F4
Q8C1S0
Q8C1T8
Q8C1Y8
Q8C1Z7
Q8C261
Q8C267
Q8C2B3
Q8C2K5
Q8C2R7
Q8C2S5
Q8C2W3
Q8C2W8
Q8C2Y5
Q8C398
Q8C3J2
Q8C3P2
Q8C3Q9
Q8C3V4
Q8C3Y4
Q8C493
Q8C4A0
Q8C4B4
Q8C4J7
Q8C4M7
Q8C4N4
Q8C4S8
Q8C4T8
Q8C4V1
Q8C4V4
Q8C4X1
Q8C4Y3
Q8C570
Q8C5D8
Q8C5H1
Q8C5L3
Q8C5L6
Q8C5N3
Q8C5S7
Q8C669
Q8C6B2
Q8C6B9
Q8C6J9
Q8C6M1
Q8C6Z1
Q8C754
Q8C761
Q8C7B6
Q8C7G5
Q8C7H1
Q8C7I4
Q8C7N7
Q8C7R4
Q8C7U7
Q8C7V3
Q8C863
Q8C878
Q8C8N2
Q8C8Q4
Q8C8R3
Q8C985
Q8C9D4
Q8C9V5
Q8C9W3
Q8CA95
Q8CAE2
Q8CAH8
Q8CAL5
Q8CAM5
Q8CAY6
Q8CB27
Q8CB58
Q8CB77
Q8CB89
Q8CBF3
Q8CBQ5
Q8CBW3
Q8CBY8
Q8CC27
Q8CC86
Q8CCA5
Q8CCB4
Q8CCF0
Q8CCH7
Q8CCK0
Q8CCS6
Q8CD76
Q8CD94
Q8CDA1
Q8CDG1
Q8CDJ3
Q8CDU4
Q8CDU6
Q8CE23
Q8CE90
Q8CEC0
Q8CEC6
Q8CEE0
Q8CF66
Q8CF89
Q8CF90
Q8CF93
Q8CF98
Q8CFA1
Q8CFA2
Q8CFD5
Q8CFE6
Q8CFG8
Q8CFG9
Q8CFI2
Q8CFI7
Q8CFJ5
Q8CFK4
Q8CFK6
Q8CFN5
Q8CFQ1
Q8CFQ3
Q8CFS6
Q8CFT2
Q8CFT3
Q8CFV9
Q8CFW1
Q8CFW7
Q8CFY5
Q8CFZ4
Q8CG16
Q8CG19
Q8CG46
Q8CG47
Q8CG48
Q8CG50
Q8CG69
Q8CG71
Q8CG73
Q8CG76
Q8CGA3
Q8CGF1
Q8CGK5
Q8CGK6
Q8CGK7
Q8CGN5
Q8CGP0
Q8CGP1
Q8CGP2
Q8CGP5
Q8CGP6
Q8CGP7
Q8CGR5
Q8CGR6
Q8CGR7
Q8CGS6
Q8CGT6
Q8CGV2
Q8CGV4
Q8CGY8
Q8CGZ7
Q8CGZ8
Q8CGZ9
Q8CH02
Q8CH18
Q8CH72
Q8CHB6
Q8CHD8
Q8CHE4
Q8CHG7
Q8CHI8
Q8CHK2
Q8CHK3
Q8CHK4
Q8CHP6
Q8CHQ0
Q8CHR6
Q8CHS8
Q8CHT0
Q8CHT1
Q8CHT3
Q8CHU3
Q8CHW4
Q8CHX6
Q8CHY6
Q8CI15
Q8CI19
Q8CI32
Q8CI43
Q8CI61
Q8CIB5
Q8CIB9
Q8CIE6
Q8CIG3
Q8CIG9
Q8CIH5
Q8CIH9
Q8CIM3
Q8CIM8
Q8CIN4
Q8CIP4
Q8CIP5
Q8CIR4
Q8CIS0
Q8CIT0
Q8CIZ9
Q8CJ00
Q8CJ53
Q8CJ70
Q8CJ91
Q8CJF7
Q8CJF8
Q8CJF9
Q8CJG0
Q8CJG1
Q8CJH3
Q8JZK9
Q8JZL1
Q8JZL3
Q8JZM0
Q8JZM4
Q8JZM7
Q8JZN3
Q8JZN5
Q8JZN7
Q8JZQ9
Q8JZR0
Q8JZR6
Q8JZS0
Q8JZS7
Q8JZU2
Q8JZV7
Q8JZV9
Q8JZX4
Q8JZX9
Q8K009
Q8K010
Q8K015
Q8K023
Q8K025
Q8K031
Q8K057
Q8K085
Q8K0A8
Q8K0B2
Q8K0C4
Q8K0C9
Q8K0D5
Q8K0E3
Q8K0E8
Q8K0G8
Q8K0H1
Q8K0H5
Q8K0H7
Q8K0J2
Q8K0L3
Q8K0Q5
Q8K0S9
Q8K0T2
Q8K0U8
Q8K0V4
Q8K0W9
Q8K0Y2
Q8K182
Q8K183
Q8K194
Q8K1E0
Q8K1G2
Q8K1I7
Q8K1K3
Q8K1K4
Q8K1M3
Q8K1N1
Q8K1R7
Q8K1S1
Q8K1S3
Q8K1S4
Q8K1S7
Q8K1X4
Q8K1Y2
Q8K1Z6
Q8K202
Q8K211
Q8K214
Q8K215
Q8K221
Q8K245
Q8K249
Q8K273
Q8K284
Q8K285
Q8K297
Q8K299
Q8K2A6
Q8K2A7
Q8K2A8
Q8K2B3
Q8K2C7
Q8K2C8
Q8K2D3
Q8K2G4
Q8K2H3
Q8K2H6
Q8K2I1
Q8K2I3
Q8K2J0
Q8K2J1
Q8K2K6
Q8K2L8
Q8K2M0
Q8K2P7
Q8K2Q2
Q8K2T1
Q8K2T8
Q8K2X8
Q8K2Y7
Q8K2Z8
Q8K301
Q8K337
Q8K341
Q8K348
Q8K358
Q8K368
Q8K371
Q8K377
Q8K382
Q8K387
Q8K389
Q8K3F6
Q8K3H0
Q8K3I6
Q8K3J1
Q8K3K7
Q8K3K8
Q8K3M1
Q8K3P1
Q8K3P5
Q8K3R3
Q8K3W0
Q8K3W3
Q8K3Y3
Q8K3Z0
Q8K3Z9
Q8K406
Q8K409
Q8K424
Q8K448
Q8K458
Q8K469
Q8K4B0
Q8K4B2
Q8K4C2
Q8K4D3
Q8K4D7
Q8K4F0
Q8K4G1
Q8K4G2
Q8K4H1
Q8K4J0
Q8K4J6
Q8K4K2
Q8K4K6
Q8K4P1
Q8K4P8
Q8K4Q6
Q8K4Q7
Q8K4Q8
Q8K4S1
Q8K4T3
Q8K4X7
Q8K4Z0
Q8K4Z3
Q8K4Z5
Q8K4Z6
Q8K557
Q8K595
Q8K596
Q8K5B1
Q8K5B2
Q8K5C8
Q8QZR1
Q8QZR5
Q8QZS1
Q8QZT1
Q8QZT4
Q8QZV7
Q8QZW8
Q8QZX2
Q8QZX5
Q8QZY1
Q8QZY9
Q8QZZ8
Q8R007
Q8R016
Q8R035
Q8R050
Q8R059
Q8R071
Q8R080
Q8R081
Q8R086
Q8R087
Q8R090
Q8R0A0
Q8R0C0
Q8R0F3
Q8R0G9
Q8R0I0
Q8R0J2
Q8R0J7
Q8R0K2
Q8R0K9
Q8R0L1
Q8R0L9
Q8R0N6
Q8R0S4
Q8R0V5
Q8R0X7
Q8R0Y6
Q8R0Z5
Q8R105
Q8R107
Q8R116
Q8R123
Q8R139
Q8R164
Q8R180
Q8R1B4
Q8R1B8
Q8R1C0
Q8R1I1
Q8R1I2
Q8R1K4
Q8R1L4
Q8R1L8
Q8R1M2
Q8R1N0
Q8R1P4
Q8R1P5
Q8R1R4
Q8R1S9
Q8R1T1
Q8R1U1
Q8R1V2
Q8R207
Q8R2F2
Q8R2H9
Q8R2K1
Q8R2L5
Q8R2N0
Q8R2N2
Q8R2Q4
Q8R2Q6
Q8R2R1
Q8R2S8
Q8R2S9
Q8R2T8
Q8R2U0
Q8R2X8
Q8R2Y3
Q8R2Y9
Q8R2Z3
Q8R313
Q8R323
Q8R332
Q8R349
Q8R359
Q8R3B1
Q8R3F5
Q8R3H7
Q8R3I2
Q8R3I9
Q8R3J4
Q8R3J5
Q8R3L0
Q8R3L5
Q8R3L8
Q8R3N1
Q8R3N6
Q8R3P0
Q8R3P2
Q8R3P6
Q8R3P7
Q8R3R8
Q8R3S6
Q8R3U1
Q8R3W2
Q8R3Z2
Q8R3Z5
Q8R429
Q8R435
Q8R459
Q8R480
Q8R493
Q8R499
Q8R4A3
Q8R4B8
Q8R4D1
Q8R4D5
Q8R4E9
Q8R4F0
Q8R4H2
Q8R4H7
Q8R4H9
Q8R4I1
Q8R4K2
Q8R4K8
Q8R4R6
Q8R4U0
Q8R4W6
Q8R4X1
Q8R4Y1
Q8R516
Q8R527
Q8R531
Q8R550
Q8R554
Q8R5A0
Q8R5A3
Q8R5F7
Q8R5G7
Q8R5H1
Q8R5I6
Q8R5J9
Q8R5K2
Q8R5K4
Q8R5L1
Q8R5M2
Q8R5M8
Q8VBT6
Q8VBT9
Q8VBU5
Q8VBU8
Q8VBV3
Q8VBV4
Q8VBV7
Q8VBV8
Q8VBV9
Q8VBW1
Q8VBW9
Q8VC12
Q8VC19
Q8VC28
Q8VC30
Q8VC34
Q8VC56
Q8VC69
Q8VC77
Q8VC85
Q8VC97
Q8VCA4
Q8VCB1
Q8VCB2
Q8VCB3
Q8VCC1
Q8VCC8
Q8VCC9
Q8VCD0
Q8VCD5
Q8VCD7
Q8VCE6
Q8VCF0
Q8VCG4
Q8VCH0
Q8VCH5
Q8VCH6
Q8VCH7
Q8VCI5
Q8VCK3
Q8VCK6
Q8VCM2
Q8VCM4
Q8VCM7
Q8VCN5
Q8VCP8
Q8VCQ3
Q8VCQ8
Q8VCS6
Q8VCS9
Q8VCW2
Q8VCW8
Q8VCX1
Q8VCY6
Q8VD12
Q8VD37
Q8VD46
Q8VD65
Q8VD70
Q8VD72
Q8VD73
Q8VD75
Q8VD76
Q8VD98
Q8VDB2
Q8VDB9
Q8VDD5
Q8VDF2
Q8VDF3
Q8VDG5
Q8VDH1
Q8VDI9
Q8VDM4
Q8VDM6
Q8VDN2
Q8VDP4
Q8VDP6
Q8VDQ1
Q8VDS4
Q8VDS8
Q8VDT1
Q8VDT9
Q8VDU1
Q8VDU3
Q8VDV3
Q8VDW0
Q8VE11
Q8VE18
Q8VE22
Q8VE47
Q8VE62
Q8VE65
Q8VE80
Q8VEB1
Q8VEB2
Q8VED2
Q8VED5
Q8VEE0
Q8VEE1
Q8VEE4
Q8VEG6
Q8VEH8
Q8VEJ9
Q8VEK3
Q8VEL2
Q8VES2
Q8VES9
Q8VET4
Q8VET8
Q8VEU0
Q8VEU2
Q8VEU8
Q8VEV0
Q8VEV1
Q8VEV7
Q8VEW1
Q8VEW5
Q8VEW6
Q8VEX5
Q8VEX7
Q8VEX8
Q8VEY9
Q8VEZ0
Q8VEZ1
Q8VEZ2
Q8VEZ3
Q8VEZ4
Q8VEZ5
Q8VEZ7
Q8VF03
Q8VF05
Q8VF06
Q8VF12
Q8VF13
Q8VF17
Q8VF18
Q8VF22
Q8VF31
Q8VF37
Q8VF49
Q8VF52
Q8VF55
Q8VF59
Q8VF65
Q8VF66
Q8VF72
Q8VF73
Q8VF74
Q8VF75
Q8VF79
Q8VF83
Q8VF85
Q8VF89
Q8VF91
Q8VF94
Q8VFB1
Q8VFC2
Q8VFC8
Q8VFD0
Q8VFD1
Q8VFD2
Q8VFD3
Q8VFE2
Q8VFE3
Q8VFF1
Q8VFF2
Q8VFF4
Q8VFF6
Q8VFH8
Q8VFI0
Q8VFI7
Q8VFI8
Q8VFJ0
Q8VFJ3
Q8VFJ5
Q8VFK3
Q8VFK5
Q8VFK7
Q8VFL9
Q8VFM1
Q8VFM3
Q8VFM4
Q8VFM5
Q8VFM9
Q8VFN0
Q8VFN1
Q8VFN6
Q8VFN8
Q8VFP2
Q8VFP4
Q8VFP6
Q8VFP8
Q8VFQ8
Q8VFQ9
Q8VFR3
Q8VFR4
Q8VFS3
Q8VFS5
Q8VFS6
Q8VFT2
Q8VFT4
Q8VFT5
Q8VFU0
Q8VFU6
Q8VFU7
Q8VFV0
Q8VFV1
Q8VFV2
Q8VFV8
Q8VFV9
Q8VFW1
Q8VFW2
Q8VFW4
Q8VFW5
Q8VFW8
Q8VFW9
Q8VFX0
Q8VFX1
Q8VFX2
Q8VFX3
Q8VFX4
Q8VFX5
Q8VFX6
Q8VFX7
Q8VFX8
Q8VFZ4
Q8VFZ5
Q8VFZ6
Q8VG02
Q8VG03
Q8VG05
Q8VG07
Q8VG08
Q8VG09
Q8VG11
Q8VG13
Q8VG19
Q8VG21
Q8VG25
Q8VG26
Q8VG33
Q8VG37
Q8VG42
Q8VG43
Q8VG45
Q8VG49
Q8VG58
Q8VG59
Q8VG65
Q8VG66
Q8VG73
Q8VG74
Q8VG87
Q8VG96
Q8VG97
Q8VGA0
Q8VGA6
Q8VGB3
Q8VGB4
Q8VGB9
Q8VGC7
Q8VGD6
Q8VGD9
Q8VGE1
Q8VGE3
Q8VGF5
Q8VGG1
Q8VGH2
Q8VGI1
Q8VGI2
Q8VGI8
Q8VGJ0
Q8VGJ1
Q8VGJ2
Q8VGJ3
Q8VGJ5
Q8VGJ8
Q8VGK0
Q8VGK1
Q8VGL6
Q8VGM3
Q8VGM5
Q8VGM6
Q8VGM7
Q8VGM9
Q8VGN6
Q8VGN9
Q8VGP1
Q8VGP3
Q8VGP4
Q8VGP6
Q8VGP8
Q8VGQ3
Q8VGQ6
Q8VGQ7
Q8VGR3
Q8VGR5
Q8VGR6
Q8VGR9
Q8VGS0
Q8VGS2
Q8VGS3
Q8VGS7
Q8VGT2
Q8VGT9
Q8VGU4
Q8VGU5
Q8VGU6
Q8VGU7
Q8VGU8
Q8VGU9
Q8VGV0
Q8VGV1
Q8VGV5
Q8VGV6
Q8VGV7
Q8VGV8
Q8VGV9
Q8VGW0
Q8VGW2
Q8VGW3
Q8VGW5
Q8VGW8
Q8VGX1
Q8VGX2
Q8VGX5
Q8VGX6
Q8VGZ2
Q8VGZ7
Q8VH00
Q8VH08
Q8VH10
Q8VH11
Q8VH17
Q8VH20
Q8VH37
Q8VHB5
Q8VHD6
Q8VHE0
Q8VHG2
Q8VHH7
Q8VHH8
Q8VHI3
Q8VHJ7
Q8VHK9
Q8VHL0
Q8VHL1
Q8VHM5
Q8VHM7
Q8VHQ9
Q8VHR5
Q8VHW3
Q8VHW4
Q8VHX6
Q8VHY0
Q8VHZ7
Q8VI33
Q8VI36
Q8VI78
Q8VI93
Q8VI94
Q8VI95
Q8VI97
Q8VIB3
Q8VIH9
Q8VIJ6
Q8VIK1
Q8VIM0
Q8VIM4
Q91UZ1
Q91UZ5
Q91V01
Q91V08
Q91V12
Q91V14
Q91V17
Q91V24
Q91V37
Q91V41
Q91V45
Q91V55
Q91V57
Q91V77
Q91V87
Q91V89
Q91V92
Q91V93
Q91V95
Q91VA0
Q91VA1
Q91VA7
Q91VB8
Q91VC7
Q91VD9
Q91VE3
Q91VF2
Q91VF6
Q91VH1
Q91VH2
Q91VH6
Q91VJ1
Q91VJ5
Q91VK2
Q91VL8
Q91VM5
Q91VM9
Q91VN0
Q91VN6
Q91VR2
Q91VR7
Q91VR8
Q91VS7
Q91VS8
Q91VT1
Q91VT4
Q91VW5
Q91VY5
Q91VZ5
Q91W10
Q91W19
Q91W27
Q91W36
Q91W43
Q91W61
Q91W90
Q91W96
Q91W98
Q91WA1
Q91WA6
Q91WA8
Q91WA9
Q91WC0
Q91WC1
Q91WC3
Q91WC9
Q91WD1
Q91WD5
Q91WD7
Q91WD8
Q91WF0
Q91WF3
Q91WF7
Q91WG5
Q91WG7
Q91WG8
Q91WH3
Q91WH7
Q91WJ0
Q91WK2
Q91WK5
Q91WL8
Q91WM3
Q91WN4
Q91WP0
Q91WR5
Q91WS4
Q91WS7
Q91WT7
Q91WT9
Q91WU5
Q91WV7
Q91WZ8
Q91X17
Q91X20
Q91X34
Q91X43
Q91X44
Q91X46
Q91X51
Q91X52
Q91X56
Q91X60
Q91X70
Q91X72
Q91X83
Q91X88
Q91X91
Q91X97
Q91XA5
Q91XC0
Q91XD4
Q91XD6
Q91XE0
Q91XE7
Q91XE9
Q91XF0
Q91XH5
Q91XL9
Q91XM9
Q91XQ5
Q91XS1
Q91XT4
Q91XU3
Q91XW8
Q91Y47
Q91Y63
Q91Y74
Q91Y86
Q91Y97
Q91YD3
Q91YD9
Q91YE2
Q91YE3
Q91YE5
Q91YE7
Q91YE9
Q91YH6
Q91YI1
Q91YI4
Q91YM2
Q91YN9
Q91YP0
Q91YP3
Q91YR7
Q91YS4
Q91YT0
Q91YT2
Q91YU7
Q91YX5
Q91YY2
Q91Z46
Q91Z50
Q91Z53
Q91Z69
Q91Z92
Q91ZA3
Q91ZD4
Q91ZD6
Q91ZE0
Q91ZE6
Q91ZI8
Q91ZJ0
Q91ZJ5
Q91ZJ9
Q91ZM2
Q91ZM9
Q91ZN5
Q91ZQ5
Q91ZR5
Q91ZT5
Q91ZU6
Q91ZV4
Q91ZW3
Q91ZW7
Q91ZW8
Q91ZW9
Q91ZX1
Q91ZX6
Q91ZY2
Q91ZZ2
Q91ZZ5
Q920A1
Q920C1
Q920E3
Q920E5
Q920F6
Q920G5
Q920G8
Q920H1
Q920H4
Q920L1
Q920L5
Q920N2
Q920P2
Q920P5
Q920Q2
Q920R0
Q920R6
Q920V1
Q920Y8
Q920Z0
Q921C3
Q921D4
Q921E6
Q921G7
Q921G8
Q921H8
Q921I0
Q921I1
Q921I9
Q921J2
Q921J4
Q921K2
Q921L5
Q921L8
Q921M3
Q921M4
Q921Q3
Q921Q7
Q921S7
Q921V5
Q921V7
Q921X6
Q921Y0
Q921Y2
Q922D4
Q922D8
Q922E4
Q922H2
Q922I7
Q922J3
Q922J9
Q922Q4
Q922Q5
Q922S8
Q922U1
Q922U2
Q922V4
Q922W5
Q922W6
Q922X9
Q922Y1
Q922Z0
Q923A2
Q923B3
Q923D2
Q923D4
Q923D5
Q923E4
Q923F1
Q923G2
Q923I7
Q923J1
Q923P0
Q923Q2
Q923S9
Q923T9
Q923W1
Q923Y8
Q924A0
Q924B0
Q924C1
Q924D1
Q924H0
Q924H2
Q924H5
Q924H8
Q924I3
Q924M7
Q924N4
Q924S2
Q924S7
Q924S8
Q924T2
Q924T7
Q924W5
Q924W7
Q924X2
Q924X4
Q924X6
Q924Y0
Q924Z4
Q925D8
Q925E8
Q925F2
Q925G2
Q925H0
Q925I4
Q925I7
Q925J9
Q925P2
Q925Q3
Q925T6
Q925U4
Q93092
Q96EQ9
Q99104
Q99246
Q99J09
Q99J21
Q99J31
Q99J38
Q99J39
Q99J45
Q99J56
Q99J62
Q99J77
Q99J79
Q99J83
Q99J93
Q99J94
Q99J95
Q99JA0
Q99JA4
Q99JB4
Q99JB7
Q99JF5
Q99JG2
Q99JG7
Q99JH8
Q99JI4
Q99JI6
Q99JJ2
Q99JP4
Q99JP6
Q99JR6
Q99JR8
Q99JT2
Q99JT9
Q99JX3
Q99JX4
Q99JX7
Q99JY0
Q99JY8
Q99JY9
Q99K10
Q99K24
Q99K28
Q99K43
Q99K46
Q99K67
Q99K70
Q99K74
Q99K82
Q99K85
Q99K90
Q99K94
Q99KE3
Q99KF1
Q99KG5
Q99KG7
Q99KI0
Q99KJ8
Q99KP3
Q99KP6
Q99KQ4
Q99KR6
Q99KS6
Q99KU1
Q99L00
Q99L02
Q99L13
Q99L27
Q99L43
Q99L45
Q99L47
Q99L56
Q99L60
Q99L90
Q99LB2
Q99LB6
Q99LB7
Q99LC2
Q99LC3
Q99LC5
Q99LC8
Q99LD8
Q99LD9
Q99LG4
Q99LH2
Q99LI7
Q99LI9
Q99LJ6
Q99LJ8
Q99LL3
Q99LN9
Q99LS1
Q99LS3
Q99LT0
Q99LY2
Q99LY9
Q99LZ3
Q99M04
Q99M28
Q99M46
Q99M51
Q99M73
Q99M74
Q99MA9
Q99MB1
Q99ME6
Q99MK8
Q99ML6
Q99ML9
Q99MN9
Q99MP8
Q99MQ3
Q99MQ5
Q99MR0
Q99MR6
Q99MR8
Q99MT2
Q99MT6
Q99MV1
Q99MV5
Q99MW6
Q99MX1
Q99MY8
Q99MZ3
Q99MZ7
Q99N15
Q99N16
Q99N17
Q99N18
Q99N19
Q99N28
Q99N32
Q99N42
Q99N57
Q99N84
Q99N87
Q99N90
Q99N91
Q99N92
Q99N93
Q99N94
Q99N95
Q99N96
Q99N99
Q99NB1
Q99NF3
Q99NH2
Q99NH8
Q99P30
Q99P50
Q99P65
Q99P69
Q99P72
Q99P81
Q99P88
Q99P91
Q99PB1
Q99PD7
Q99PE8
Q99PG4
Q99PI4
Q99PI5
Q99PJ2
Q99PL7
Q99PL8
Q99PM0
Q99PM3
Q99PM9
Q99PN3
Q99PQ1
Q99PS0
Q99PT1
Q99PT3
Q99PU5
Q99PU7
Q99PV0
Q99PV5
Q99PW8
Q9CPP6
Q9CPQ0
Q9CPQ2
Q9CPQ3
Q9CPQ5
Q9CPQ8
Q9CPQ9
Q9CPR5
Q9CPT3
Q9CPU0
Q9CPU2
Q9CPU4
Q9CPU7
Q9CPV2
Q9CPV3
Q9CPV5
Q9CPV9
Q9CPW2
Q9CPW3
Q9CPW4
Q9CPX4
Q9CPX6
Q9CPX7
Q9CPX8
Q9CPX9
Q9CPY1
Q9CPY3
Q9CPZ6
Q9CQ06
Q9CQ10
Q9CQ13
Q9CQ19
Q9CQ20
Q9CQ22
Q9CQ26
Q9CQ28
Q9CQ36
Q9CQ37
Q9CQ39
Q9CQ40
Q9CQ49
Q9CQ54
Q9CQ56
Q9CQ58
Q9CQ60
Q9CQ62
Q9CQ65
Q9CQ68
Q9CQ69
Q9CQ71
Q9CQ73
Q9CQ75
Q9CQ80
Q9CQ82
Q9CQ91
Q9CQA0
Q9CQA1
Q9CQA3
Q9CQA5
Q9CQA6
Q9CQB4
Q9CQC2
Q9CQC4
Q9CQC5
Q9CQC7
Q9CQC9
Q9CQD1
Q9CQD8
Q9CQE2
Q9CQE3
Q9CQE6
Q9CQF0
Q9CQF3
Q9CQF6
Q9CQF8
Q9CQG1
Q9CQH3
Q9CQI1
Q9CQI7
Q9CQI9
Q9CQJ0
Q9CQJ4
Q9CQJ7
Q9CQJ8
Q9CQL4
Q9CQL5
Q9CQL6
Q9CQM2
Q9CQM8
Q9CQN3
Q9CQN7
Q9CQP0
Q9CQP2
Q9CQQ4
Q9CQQ7
Q9CQQ8
Q9CQR2
Q9CQR4
Q9CQR5
Q9CQR6
Q9CQR7
Q9CQS8
Q9CQS9
Q9CQT1
Q9CQU1
Q9CQU5
Q9CQV5
Q9CQV6
Q9CQV8
Q9CQW1
Q9CQW3
Q9CQW9
Q9CQX4
Q9CQX8
Q9CQY1
Q9CQY9
Q9CQZ0
Q9CQZ1
Q9CQZ5
Q9CQZ6
Q9CQZ7
Q9CR00
Q9CR11
Q9CR14
Q9CR21
Q9CR25
Q9CR26
Q9CR30
Q9CR35
Q9CR46
Q9CR49
Q9CR50
Q9CR51
Q9CR52
Q9CR53
Q9CR57
Q9CR59
Q9CR61
Q9CR62
Q9CR68
Q9CR73
Q9CR75
Q9CR81
Q9CR84
Q9CR88
Q9CR95
Q9CR99
Q9CRA4
Q9CRA7
Q9CRA8
Q9CRB5
Q9CRC9
Q9CRY7
Q9CS84
Q9CSH3
Q9CSN1
Q9CSU0
Q9CTH6
Q9CTN4
Q9CTU9
Q9CU62
Q9CUC4
Q9CUN6
Q9CUU3
Q9CVB6
Q9CVD2
Q9CVV2
Q9CW03
Q9CW79
Q9CWF6
Q9CWG8
Q9CWH6
Q9CWJ9
Q9CWK3
Q9CWK8
Q9CWL8
Q9CWN7
Q9CWP8
Q9CWQ0
Q9CWR2
Q9CWR8
Q9CWS0
Q9CWS4
Q9CWU0
Q9CWU9
Q9CWV1
Q9CWX9
Q9CWY3
Q9CWY4
Q9CWZ3
Q9CX34
Q9CX47
Q9CX53
Q9CX56
Q9CX84
Q9CX86
Q9CX98
Q9CX99
Q9CXB2
Q9CXE6
Q9CXE7
Q9CXF7
Q9CXG9
Q9CXH7
Q9CXK4
Q9CXP4
Q9CXP8
Q9CXR4
Q9CXT6
Q9CXU0
Q9CXU1
Q9CXW2
Q9CXW4
Q9CXY9
Q9CY00
Q9CY16
Q9CY25
Q9CY27
Q9CY46
Q9CY57
Q9CY64
Q9CY73
Q9CY94
Q9CYB0
Q9CYC5
Q9CYC6
Q9CYD3
Q9CYN2
Q9CYN9
Q9CYR6
Q9CZ04
Q9CZ13
Q9CZ15
Q9CZ19
Q9CZ28
Q9CZ62
Q9CZ82
Q9CZ83
Q9CZ92
Q9CZ96
Q9CZA6
Q9CZB0
Q9CZB6
Q9CZD0
Q9CZE3
Q9CZG9
Q9CZJ1
Q9CZJ6
Q9CZM2
Q9CZM9
Q9CZN7
Q9CZQ9
Q9CZR2
Q9CZS1
Q9CZT4
Q9CZU0
Q9CZU3
Q9CZU4
Q9CZU6
Q9CZV8
Q9CZW2
Q9CZW4
Q9CZW5
Q9CZW6
Q9CZX2
Q9CZX8
Q9CZY3
Q9D007
Q9D009
Q9D020
Q9D051
Q9D081
Q9D083
Q9D084
Q9D091
Q9D099
Q9D0B0
Q9D0C1
Q9D0D2
Q9D0D5
Q9D0E1
Q9D0F1
Q9D0F3
Q9D0F6
Q9D0G0
Q9D0J4
Q9D0K2
Q9D0L6
Q9D0L8
Q9D0M0
Q9D0M3
Q9D0M5
Q9D0P5
Q9D0P8
Q9D0T1
Q9D0U9
Q9D0W5
Q9D0Y8
Q9D0Z8
Q9D103
Q9D104
Q9D110
Q9D123
Q9D125
Q9D140
Q9D164
Q9D168
Q9D173
Q9D198
Q9D1A2
Q9D1B9
Q9D1C1
Q9D1C2
Q9D1C9
Q9D1D4
Q9D1E8
Q9D1F4
Q9D1G1
Q9D1G2
Q9D1H1
Q9D1H6
Q9D1H8
Q9D1H9
Q9D1I5
Q9D1I6
Q9D1J3
Q9D1K2
Q9D1L9
Q9D1M0
Q9D1N2
Q9D1N9
Q9D1P0
Q9D1P2
Q9D1Q1
Q9D1Q4
Q9D1R1
Q9D1R9
Q9D1T0
Q9D219
Q9D270
Q9D287
Q9D289
Q9D2C6
Q9D2C9
Q9D2G2
Q9D2G5
Q9D2M8
Q9D2N8
Q9D2R0
Q9D2R8
Q9D2U0
Q9D2U9
Q9D2V6
Q9D2W0
Q9D2X5
Q9D2Y9
Q9D2Z4
Q9D304
Q9D312
Q9D338
Q9D361
Q9D365
Q9D384
Q9D385
Q9D3A9
Q9D3D9
Q9D3E6
Q9D3F7
Q9D3G9
Q9D3P9
Q9D3R3
Q9D3R8
Q9D3U9
Q9D415
Q9D479
Q9D483
Q9D495
Q9D4B1
Q9D4C5
Q9D4C9
Q9D4F8
Q9D4G9
Q9D4H1
Q9D4H2
Q9D4H4
Q9D4H8
Q9D4V0
Q9D4V4
Q9D517
Q9D554
Q9D566
Q9D593
Q9D5L7
Q9D5R2
Q9D5R3
Q9D600
Q9D646
Q9D666
Q9D676
Q9D684
Q9D687
Q9D6F4
Q9D6F9
Q9D6H2
Q9D6J1
Q9D6J5
Q9D6J6
Q9D6K9
Q9D6M3
Q9D6N1
Q9D6N5
Q9D6R2
Q9D6S7
Q9D6T0
Q9D6X5
Q9D6Y7
Q9D6Y9
Q9D6Z1
Q9D6Z6
Q9D721
Q9D752
Q9D753
Q9D773
Q9D786
Q9D787
Q9D7B7
Q9D7F7
Q9D7I5
Q9D7I9
Q9D7J7
Q9D7M8
Q9D7N3
Q9D7N6
Q9D7P6
Q9D7S9
Q9D7V9
Q9D7W5
Q9D7X3
Q9D7X8
Q9D7Z6
Q9D816
Q9D819
Q9D823
Q9D824
Q9D826
Q9D856
Q9D868
Q9D883
Q9D892
Q9D8B3
Q9D8B7
Q9D8C6
Q9D8C9
Q9D8D0
Q9D8D6
Q9D8E6
Q9D8F3
Q9D8H7
Q9D8I2
Q9D8I4
Q9D8N0
Q9D8N6
Q9D8P4
Q9D8P7
Q9D8U8
Q9D8V7
Q9D8W5
Q9D8X5
Q9D8Y8
Q9D8Z2
Q9D8Z6
Q9D902
Q9D906
Q9D939
Q9D952
Q9D958
Q9D970
Q9D982
Q9D9E0
Q9D9I4
Q9D9J7
Q9D9M2
Q9D9V7
Q9D9Z7
Q9DA01
Q9DA69
Q9DAA6
Q9DAI2
Q9DAJ4
Q9DAJ5
Q9DAK3
Q9DAM5
Q9DAR7
Q9DAS4
Q9DAS5
Q9DAS9
Q9DAT7
Q9DAU1
Q9DAV5
Q9DAV8
Q9DAW6
Q9DAX2
Q9DAY2
Q9DAY4
Q9DAZ2
Q9DB05
Q9DB07
Q9DB15
Q9DB16
Q9DB20
Q9DB25
Q9DB30
Q9DB34
Q9DB40
Q9DB41
Q9DB50
Q9DB73
Q9DB77
Q9DB85
Q9DB90
Q9DB91
Q9DBA8
Q9DBB1
Q9DBB5
Q9DBC7
Q9DBD5
Q9DBE8
Q9DBF1
Q9DBF7
Q9DBG1
Q9DBG3
Q9DBG5
Q9DBG9
Q9DBI0
Q9DBJ6
Q9DBK0
Q9DBK7
Q9DBL0
Q9DBL7
Q9DBL9
Q9DBM0
Q9DBM2
Q9DBP0
Q9DBQ6
Q9DBR1
Q9DBR7
Q9DBS4
Q9DBT4
Q9DBT5
Q9DBW0
Q9DBX2
Q9DBX6
Q9DBX7
Q9DBY5
Q9DBZ5
Q9DC04
Q9DC28
Q9DC42
Q9DC48
Q9DC50
Q9DC51
Q9DC69
Q9DC70
Q9DC71
Q9DCC4
Q9DCC5
Q9DCC8
Q9DCD0
Q9DCD2
Q9DCD6
Q9DCE6
Q9DCG9
Q9DCH4
Q9DCI3
Q9DCI9
Q9DCJ1
Q9DCJ5
Q9DCJ7
Q9DCJ9
Q9DCL9
Q9DCM0
Q9DCM4
Q9DCN1
Q9DCN2
Q9DCP2
Q9DCQ3
Q9DCR2
Q9DCS9
Q9DCT2
Q9DCU6
Q9DCV3
Q9DCV7
Q9DCW4
Q9DCX2
Q9DCX8
Q9DCZ1
Q9DCZ9
Q9DD02
Q9DD03
Q9EP53
Q9EP66
Q9EP69
Q9EP73
Q9EP75
Q9EP78
Q9EP96
Q9EP97
Q9EPB4
Q9EPC2
Q9EPF5
Q9EPF6
Q9EPF7
Q9EPF8
Q9EPG3
Q9EPG6
Q9EPJ9
Q9EPK2
Q9EPK5
Q9EPK8
Q9EPL0
Q9EPL9
Q9EPQ1
Q9EPR2
Q9EPS2
Q9EPS3
Q9EPU0
Q9EPU4
Q9EPX5
Q9EQ06
Q9EQ08
Q9EQ09
Q9EQ14
Q9EQ16
Q9EQ20
Q9EQ31
Q9EQ32
Q9EQ61
Q9EQ98
Q9EQ99
Q9EQA0
Q9EQA9
Q9EQB4
Q9EQB8
Q9EQC0
Q9EQC1
Q9EQC4
Q9EQC7
Q9EQC8
Q9EQD0
Q9EQF2
Q9EQF5
Q9EQF6
Q9EQG9
Q9EQH3
Q9EQH4
Q9EQI5
Q9EQI8
Q9EQJ0
Q9EQM6
Q9EQN9
Q9EQQ4
Q9EQR6
Q9EQT3
Q9EQU3
Q9EQU5
Q9EQW4
Q9EQX0
Q9EQZ6
Q9ER39
Q9ER47
Q9ER64
Q9ER69
Q9ER71
Q9ER88
Q9ER99
Q9ERA6
Q9ERB0
Q9ERC8
Q9ERE2
Q9ERE3
Q9ERF3
Q9ERH8
Q9ERI2
Q9ERI5
Q9ERI6
Q9ERK7
Q9ERK9
Q9ERL0
Q9ERM2
Q9ERQ8
Q9ERR1
Q9ERS2
Q9ERS4
Q9ERS7
Q9ERU9
Q9ERV7
Q9ERZ3
Q9ERZ4
Q9ES28
Q9ES46
Q9ES52
Q9ES56
Q9ES57
Q9ES70
Q9ES88
Q9ES97
Q9ESC8
Q9ESD7
Q9ESG2
Q9ESG6
Q9ESG9
Q9ESJ1
Q9ESJ4
Q9ESK4
Q9ESK9
Q9ESL8
Q9ESL9
Q9ESN5
Q9ESS2
Q9ESU7
Q9ESX5
Q9ESY9
Q9ET01
Q9ET26
Q9ET35
Q9ET39
Q9JHB2
Q9JHD1
Q9JHD2
Q9JHE3
Q9JHF5
Q9JHF7
Q9JHF9
Q9JHG1
Q9JHG7
Q9JHH9
Q9JHI0
Q9JHI4
Q9JHI5
Q9JHI7
Q9JHI8
Q9JHI9
Q9JHJ5
Q9JHJ8
Q9JHK0
Q9JHK4
Q9JHL0
Q9JHQ5
Q9JHS3
Q9JHS9
Q9JHU4
Q9JHU9
Q9JHW9
Q9JHZ2
Q9JI10
Q9JI11
Q9JI13
Q9JI33
Q9JI46
Q9JI59
Q9JI60
Q9JI71
Q9JI76
Q9JI78
Q9JI91
Q9JI99
Q9JIA1
Q9JIA7
Q9JIB0
Q9JIB4
Q9JIF0
Q9JIF3
Q9JIF7
Q9JIH2
Q9JII1
Q9JII2
Q9JII6
Q9JIK5
Q9JIK9
Q9JIL2
Q9JIM1
Q9JIN6
Q9JIP3
Q9JIP4
Q9JIP6
Q9JIP7
Q9JIS7
Q9JIS8
Q9JIW4
Q9JIW5
Q9JIX8
Q9JJ04
Q9JJ06
Q9JJ14
Q9JJ26
Q9JJ48
Q9JJ57
Q9JJ66
Q9JJ69
Q9JJ94
Q9JJA2
Q9JJA4
Q9JJF9
Q9JJH7
Q9JJI6
Q9JJI8
Q9JJJ3
Q9JJJ7
Q9JJL3
Q9JJL9
Q9JJN0
Q9JJN1
Q9JJN6
Q9JJP2
Q9JJS0
Q9JJS6
Q9JJS7
Q9JJT0
Q9JJT2
Q9JJT9
Q9JJV2
Q9JJV4
Q9JJV5
Q9JJV9
Q9JJX7
Q9JJY3
Q9JJY4
Q9JJY8
Q9JJY9
Q9JK30
Q9JK38
Q9JK42
Q9JK45
Q9JK53
Q9JK83
Q9JK84
Q9JK91
Q9JK92
Q9JK95
Q9JK97
Q9JKA3
Q9JKB1
Q9JKC7
Q9JKD9
Q9JKE2
Q9JKF1
Q9JKF4
Q9JKF6
Q9JKF7
Q9JKJ9
Q9JKK1
Q9JKK8
Q9JKL1
Q9JKL4
Q9JKN1
Q9JKR6
Q9JKT3
Q9JKT4
Q9JKV1
Q9JKV9
Q9JKX6
Q9JKY0
Q9JKY5
Q9JKY7
Q9JKZ2
Q9JL19
Q9JL21
Q9JL26
Q9JL56
Q9JL70
Q9JL99
Q9JLA2
Q9JLB2
Q9JLB4
Q9JLB9
Q9JLC3
Q9JLF1
Q9JLI0
Q9JLI2
Q9JLJ4
Q9JLJ5
Q9JLL9
Q9JLM9
Q9JLN9
Q9JLQ0
Q9JLR1
Q9JLV1
Q9JLV2
Q9JLV5
Q9JLV9
Q9JLY0
Q9JM05
Q9JM13
Q9JM14
Q9JM52
Q9JM54
Q9JM58
Q9JM63
Q9JM71
Q9JM73
Q9JM76
Q9JM87
Q9JM95
Q9JMA1
Q9JMA7
Q9JMA9
Q9JMB7
Q9JMB8
Q9JMD3
Q9JME2
Q9JME7
Q9JMF3
Q9JMF7
Q9JMG2
Q9JMH3
Q9JMH6
Q9JMH7
Q9JMJ2
Q9JMK0
Q9JMK2
Q9NYQ2
Q9QUG2
Q9QUG9
Q9QUH0
Q9QUH1
Q9QUI0
Q9QUJ7
Q9QUK6
Q9QUK9
Q9QUL3
Q9QUM0
Q9QUM7
Q9QUM9
Q9QUN3
Q9QUN5
Q9QUP4
Q9QUQ5
Q9QUR7
Q9QUR8
Q9QUS4
Q9QUT0
Q9QVP4
Q9QVP9
Q9QWG7
Q9QWH1
Q9QWL7
Q9QWU6
Q9QWV1
Q9QWV9
Q9QWW1
Q9QWY8
Q9QWZ1
Q9QX11
Q9QX29
Q9QX60
Q9QX98
Q9QXA6
Q9QXD1
Q9QXD6
Q9QXD8
Q9QXE0
Q9QXE2
Q9QXE4
Q9QXE7
Q9QXF8
Q9QXG4
Q9QXG9
Q9QXH4
Q9QXI6
Q9QXJ1
Q9QXJ2
Q9QXK2
Q9QXK3
Q9QXK7
Q9QXK8
Q9QXK9
Q9QXN7
Q9QXP0
Q9QXQ1
Q9QXS1
Q9QXT1
Q9QXT8
Q9QXU7
Q9QXV1
Q9QXV8
Q9QXV9
Q9QXW2
Q9QXW9
Q9QXX0
Q9QXX3
Q9QXX4
Q9QXY6
Q9QXY7
Q9QXZ6
Q9QXZ7
Q9QXZ9
Q9QY23
Q9QY24
Q9QY30
Q9QY40
Q9QY42
Q9QY81
Q9QY93
Q9QY96
Q9QYA2
Q9QYB5
Q9QYB8
Q9QYC0
Q9QYC7
Q9QYE5
Q9QYE6
Q9QYF1
Q9QYH6
Q9QYH9
Q9QYI3
Q9QYJ3
Q9QYK5
Q9QYM8
Q9QYR7
Q9QYR9
Q9QYS1
Q9QYS2
Q9QYT7
Q9QYY0
Q9QYY9
Q9QZ03
Q9QZ06
Q9QZ08
Q9QZ11
Q9QZ18
Q9QZ39
Q9QZ41
Q9QZ82
Q9QZ88
Q9QZA0
Q9QZB6
Q9QZB9
Q9QZC2
Q9QZD4
Q9QZD8
Q9QZD9
Q9QZE5
Q9QZE7
Q9QZF2
Q9QZH3
Q9QZI9
Q9QZJ6
Q9QZL0
Q9QZM0
Q9QZM3
Q9QZM4
Q9QZM8
Q9QZN4
Q9QZQ1
Q9QZQ3
Q9QZQ8
Q9QZR5
Q9QZR9
Q9QZS0
Q9QZS3
Q9QZS5
Q9QZS6
Q9QZS7
Q9QZT4
Q9QZU3
Q9QZU9
Q9QZV9
Q9R001
Q9R007
Q9R008
Q9R013
Q9R049
Q9R062
Q9R078
Q9R086
Q9R087
Q9R097
Q9R098
Q9R0A1
Q9R0B6
Q9R0B9
Q9R0C0
Q9R0C8
Q9R0E1
Q9R0E2
Q9R0G6
Q9R0H0
Q9R0H5
Q9R0K2
Q9R0K7
Q9R0L6
Q9R0M5
Q9R0M6
Q9R0N0
Q9R0N5
Q9R0N9
Q9R0P3
Q9R0P6
Q9R0P9
Q9R0Q3
Q9R0Q6
Q9R0Q7
Q9R0R4
Q9R0T7
Q9R0T8
Q9R0W9
Q9R0X0
Q9R0X4
Q9R0Y1
Q9R0Y5
Q9R100
Q9R111
Q9R112
Q9R155
Q9R182
Q9R187
Q9R190
Q9R194
Q9R1A3
Q9R1A8
Q9R1B9
Q9R1C0
Q9R1C6
Q9R1C7
Q9R1C8
Q9R1E0
Q9R1J0
Q9R1K5
Q9R1K9
Q9R1N9
Q9R1P0
Q9R1P1
Q9R1P3
Q9R1P4
Q9R1Q9
Q9R1S0
Q9R1T2
Q9R1V4
Q9R1V6
Q9R1V7
Q9R1W3
Q9R1W5
Q9R1X4
Q9R1Z7
Q9R1Z8
Q9R207
Q9R226
Q9WTI7
Q9WTJ5
Q9WTJ9
Q9WTK3
Q9WTK5
Q9WTK7
Q9WTL7
Q9WTL8
Q9WTN0
Q9WTN3
Q9WTN6
Q9WTP6
Q9WTR0
Q9WTR1
Q9WTR5
Q9WTR6
Q9WTS2
Q9WTT4
Q9WTU0
Q9WTU6
Q9WTV6
Q9WTV7
Q9WTW5
Q9WTX2
Q9WTX4
Q9WTX5
Q9WTX6
Q9WTX8
Q9WTZ2
Q9WTZ9
Q9WU00
Q9WU01
Q9WU02
Q9WU03
Q9WU19
Q9WU20
Q9WU22
Q9WU32
Q9WU38
Q9WU39
Q9WU42
Q9WU62
Q9WU72
Q9WU79
Q9WU84
Q9WUA1
Q9WUA3
Q9WUA5
Q9WUB0
Q9WUB3
Q9WUB4
Q9WUB6
Q9WUB7
Q9WUD0
Q9WUD1
Q9WUG6
Q9WUH1
Q9WUI1
Q9WUK2
Q9WUK4
Q9WUL5
Q9WUL6
Q9WUL7
Q9WUL8
Q9WUM5
Q9WUN2
Q9WUP0
Q9WUP1
Q9WUP4
Q9WUP7
Q9WUQ2
Q9WUR9
Q9WUS4
Q9WUT3
Q9WUT7
Q9WUU6
Q9WUU7
Q9WUU8
Q9WUV0
Q9WUV2
Q9WUX5
Q9WUZ5
Q9WUZ9
Q9WV08
Q9WV18
Q9WV27
Q9WV32
Q9WV38
Q9WV54
Q9WV55
Q9WV60
Q9WV68
Q9WV69
Q9WV76
Q9WV84
Q9WV92
Q9WV93
Q9WVA3
Q9WVA7
Q9WVA8
Q9WVB2
Q9WVC5
Q9WVC6
Q9WVC8
Q9WVD4
Q9WVD5
Q9WVE8
Q9WVF6
Q9WVF7
Q9WVF9
Q9WVG5
Q9WVG6
Q9WVG9
Q9WVH3
Q9WVH4
Q9WVH6
Q9WVH9
Q9WVJ2
Q9WVJ7
Q9WVJ9
Q9WVK4
Q9WVK5
Q9WVK8
Q9WVL0
Q9WVL1
Q9WVL3
Q9WVM1
Q9WVM3
Q9WVM6
Q9WVM8
Q9WVS0
Q9WVS6
Q9WVS8
Q9WVT6
Q9Z0D9
Q9Z0E6
Q9Z0E8
Q9Z0F1
Q9Z0F5
Q9Z0F6
Q9Z0F8
Q9Z0H0
Q9Z0H1
Q9Z0H3
Q9Z0H7
Q9Z0J4
Q9Z0L1
Q9Z0L2
Q9Z0L6
Q9Z0M5
Q9Z0M9
Q9Z0N1
Q9Z0P7
Q9Z0R4
Q9Z0R9
Q9Z0S1
Q9Z0T9
Q9Z0U1
Q9Z0U9
Q9Z0V1
Q9Z0V2
Q9Z0W1
Q9Z0W3
Q9Z0X0
Q9Z0X4
Q9Z0Y1
Q9Z0Y2
Q9Z0Y7
Q9Z0Y9
Q9Z0Z3
Q9Z0Z4
Q9Z0Z7
Q9Z101
Q9Z110
Q9Z126
Q9Z127
Q9Z138
Q9Z140
Q9Z148
Q9Z160
Q9Z172
Q9Z183
Q9Z1A1
Q9Z1B3
Q9Z1B5
Q9Z1B7
Q9Z1B8
Q9Z1D1
Q9Z1E3
Q9Z1E4
Q9Z1F9
Q9Z1G3
Q9Z1G4
Q9Z1J3
Q9Z1K5
Q9Z1K8
Q9Z1L5
Q9Z1M0
Q9Z1M4
Q9Z1M7
Q9Z1N2
Q9Z1N5
Q9Z1N9
Q9Z1P4
Q9Z1P5
Q9Z1P6
Q9Z1P8
Q9Z1R9
Q9Z1S0
Q9Z1S3
Q9Z1S8
Q9Z1T1
Q9Z1T2
Q9Z1T6
Q9Z1W5
Q9Z1W8
Q9Z1X0
Q9Z1X2
Q9Z1X9
Q9Z1Y9
Q9Z1Z0
Q9Z1Z2
Q9Z202
Q9Z204
Q9Z206
Q9Z207
Q9Z222
Q9Z238
Q9Z239
Q9Z248
Q9Z255
Q9Z256
Q9Z257
Q9Z265
Q9Z266
Q9Z268
Q9Z275
Q9Z277
Q9Z280
Q9Z282
Q9Z2A0
Q9Z2A7
Q9Z2A9
Q9Z2B1
Q9Z2C4
Q9Z2C5
Q9Z2C9
Q9Z2D1
Q9Z2D8
Q9Z2E1
Q9Z2F7
Q9Z2G6
Q9Z2I2
Q9Z2I8
Q9Z2I9
Q9Z2J6
Q9Z2K1
Q9Z2M7
Q9Z2N8
Q9Z2Q5
Q9Z2S7
Q9Z2U0
Q9Z2U1
Q9Z2V4
Q9Z2V5
Q9Z2W8
Q9Z2W9
Q9Z2X1
Q9Z2X2
Q9Z2X8
Q9Z2Y2
Q9Z2Y3
Q9Z2Z6
Q9Z2Z9
Q9Z306
Q9Z307
Q9Z315
Q9Z319
Q9Z320
Q9Z324
Q9Z329
R4GML8
S4R182
S4R195
S4R1D2
S4R1D4
S4R1E3
S4R1E9
S4R1F8
S4R1I6
S4R1I7
S4R1K3
S4R1M9
S4R1N2
S4R1T3
S4R1T7
S4R1V8
S4R1W1
S4R215
S4R239
S4R277
S4R284
S4R295
S4R2C5
S4R2E1
S4R2F4
S4R2G0
S4R2G5
S4R2G7
S4R2G9
S4R2K7
S4R2L6
S4R2L8
S4R2M4
S4R2N3
S4R2P9
S4R2S1
V5IRT6
V9GWS8
V9GWV0
V9GWW3
V9GWZ4
V9GX03
V9GX06
V9GX08
V9GX15
V9GX56
V9GX76
V9GXA7
V9GXB3
V9GXE4
V9GXI3
V9GXI4
V9GXK0
V9GXK8
V9GXL0
V9GXM4
V9GXN8
V9GXP9
V9GXQ9
V9GXR0
V9GXV0
V9GXY0
W4VSN7
Z4YJD9
Z4YJE4
Z4YJU0
Z4YJY0
Z4YKC4
Z4YKD9
Z4YKE7
Z4YKF8
Z4YKG3
Z4YKG8
Z4YKH8
Z4YKJ7
Z4YL28
Z4YL78
Z4YNB2
